([('RaportBudownictwo.exe',
   'C:\\Users\\mrzyglop\\egospodarka\\build\\RaportBudownictwo\\RaportBudownictwo.exe',
   'EXECUTABLE'),
  ('RaportBudownictwo.exe.manifest',
   'C:\\Users\\mrzyglop\\egospodarka\\build\\RaportBudownictwo\\RaportBudownictwo.exe.manifest',
   'BINARY'),
  ('VCRUNTIME140.dll',
   'c:\\users\\mrzyglop\\appdata\\local\\programs\\python\\python36-32\\VCRUNTIME140.dll',
   'BINARY'),
  ('api-ms-win-crt-math-l1-1-0.dll',
   'C:\\WINDOWS\\system32\\api-ms-win-crt-math-l1-1-0.dll',
   'BINARY'),
  ('api-ms-win-crt-locale-l1-1-0.dll',
   'C:\\WINDOWS\\system32\\api-ms-win-crt-locale-l1-1-0.dll',
   'BINARY'),
  ('api-ms-win-crt-heap-l1-1-0.dll',
   'C:\\WINDOWS\\system32\\api-ms-win-crt-heap-l1-1-0.dll',
   'BINARY'),
  ('api-ms-win-crt-stdio-l1-1-0.dll',
   'C:\\WINDOWS\\system32\\api-ms-win-crt-stdio-l1-1-0.dll',
   'BINARY'),
  ('api-ms-win-crt-runtime-l1-1-0.dll',
   'C:\\WINDOWS\\system32\\api-ms-win-crt-runtime-l1-1-0.dll',
   'BINARY'),
  ('python36.dll',
   'c:\\users\\mrzyglop\\appdata\\local\\programs\\python\\python36-32\\python36.dll',
   'BINARY'),
  ('api-ms-win-crt-convert-l1-1-0.dll',
   'C:\\WINDOWS\\system32\\api-ms-win-crt-convert-l1-1-0.dll',
   'BINARY'),
  ('api-ms-win-crt-string-l1-1-0.dll',
   'C:\\WINDOWS\\system32\\api-ms-win-crt-string-l1-1-0.dll',
   'BINARY'),
  ('ucrtbase.dll', 'C:\\WINDOWS\\system32\\ucrtbase.dll', 'BINARY'),
  ('api-ms-win-crt-filesystem-l1-1-0.dll',
   'C:\\WINDOWS\\system32\\api-ms-win-crt-filesystem-l1-1-0.dll',
   'BINARY'),
  ('api-ms-win-crt-time-l1-1-0.dll',
   'C:\\WINDOWS\\system32\\api-ms-win-crt-time-l1-1-0.dll',
   'BINARY'),
  ('api-ms-win-crt-environment-l1-1-0.dll',
   'C:\\WINDOWS\\system32\\api-ms-win-crt-environment-l1-1-0.dll',
   'BINARY'),
  ('api-ms-win-crt-process-l1-1-0.dll',
   'C:\\WINDOWS\\system32\\api-ms-win-crt-process-l1-1-0.dll',
   'BINARY'),
  ('api-ms-win-crt-conio-l1-1-0.dll',
   'C:\\WINDOWS\\system32\\api-ms-win-crt-conio-l1-1-0.dll',
   'BINARY'),
  ('api-ms-win-core-console-l1-1-0.dll',
   'C:\\WINDOWS\\system32\\api-ms-win-core-console-l1-1-0.dll',
   'BINARY'),
  ('api-ms-win-core-sysinfo-l1-1-0.dll',
   'C:\\WINDOWS\\system32\\api-ms-win-core-sysinfo-l1-1-0.dll',
   'BINARY'),
  ('api-ms-win-core-handle-l1-1-0.dll',
   'C:\\WINDOWS\\system32\\api-ms-win-core-handle-l1-1-0.dll',
   'BINARY'),
  ('api-ms-win-core-interlocked-l1-1-0.dll',
   'C:\\WINDOWS\\system32\\api-ms-win-core-interlocked-l1-1-0.dll',
   'BINARY'),
  ('api-ms-win-core-rtlsupport-l1-1-0.dll',
   'C:\\WINDOWS\\system32\\api-ms-win-core-rtlsupport-l1-1-0.dll',
   'BINARY'),
  ('api-ms-win-core-localization-l1-2-0.dll',
   'C:\\WINDOWS\\system32\\api-ms-win-core-localization-l1-2-0.dll',
   'BINARY'),
  ('api-ms-win-core-memory-l1-1-0.dll',
   'C:\\WINDOWS\\system32\\api-ms-win-core-memory-l1-1-0.dll',
   'BINARY'),
  ('api-ms-win-core-libraryloader-l1-1-0.dll',
   'C:\\WINDOWS\\system32\\api-ms-win-core-libraryloader-l1-1-0.dll',
   'BINARY'),
  ('api-ms-win-core-processthreads-l1-1-0.dll',
   'C:\\WINDOWS\\system32\\api-ms-win-core-processthreads-l1-1-0.dll',
   'BINARY'),
  ('api-ms-win-core-file-l2-1-0.dll',
   'C:\\WINDOWS\\system32\\api-ms-win-core-file-l2-1-0.dll',
   'BINARY'),
  ('api-ms-win-core-heap-l1-1-0.dll',
   'C:\\WINDOWS\\system32\\api-ms-win-core-heap-l1-1-0.dll',
   'BINARY'),
  ('api-ms-win-core-namedpipe-l1-1-0.dll',
   'C:\\WINDOWS\\system32\\api-ms-win-core-namedpipe-l1-1-0.dll',
   'BINARY'),
  ('api-ms-win-core-processenvironment-l1-1-0.dll',
   'C:\\WINDOWS\\system32\\api-ms-win-core-processenvironment-l1-1-0.dll',
   'BINARY'),
  ('api-ms-win-core-string-l1-1-0.dll',
   'C:\\WINDOWS\\system32\\api-ms-win-core-string-l1-1-0.dll',
   'BINARY'),
  ('api-ms-win-core-util-l1-1-0.dll',
   'C:\\WINDOWS\\system32\\api-ms-win-core-util-l1-1-0.dll',
   'BINARY'),
  ('api-ms-win-core-synch-l1-2-0.dll',
   'C:\\WINDOWS\\system32\\api-ms-win-core-synch-l1-2-0.dll',
   'BINARY'),
  ('api-ms-win-core-datetime-l1-1-0.dll',
   'C:\\WINDOWS\\system32\\api-ms-win-core-datetime-l1-1-0.dll',
   'BINARY'),
  ('api-ms-win-core-processthreads-l1-1-1.dll',
   'C:\\WINDOWS\\system32\\api-ms-win-core-processthreads-l1-1-1.dll',
   'BINARY'),
  ('api-ms-win-core-file-l1-1-0.dll',
   'C:\\WINDOWS\\system32\\api-ms-win-core-file-l1-1-0.dll',
   'BINARY'),
  ('api-ms-win-core-file-l1-2-0.dll',
   'C:\\WINDOWS\\system32\\api-ms-win-core-file-l1-2-0.dll',
   'BINARY'),
  ('api-ms-win-core-profile-l1-1-0.dll',
   'C:\\WINDOWS\\system32\\api-ms-win-core-profile-l1-1-0.dll',
   'BINARY'),
  ('api-ms-win-core-synch-l1-1-0.dll',
   'C:\\WINDOWS\\system32\\api-ms-win-core-synch-l1-1-0.dll',
   'BINARY'),
  ('api-ms-win-core-debug-l1-1-0.dll',
   'C:\\WINDOWS\\system32\\api-ms-win-core-debug-l1-1-0.dll',
   'BINARY'),
  ('api-ms-win-core-errorhandling-l1-1-0.dll',
   'C:\\WINDOWS\\system32\\api-ms-win-core-errorhandling-l1-1-0.dll',
   'BINARY'),
  ('api-ms-win-core-timezone-l1-1-0.dll',
   'C:\\WINDOWS\\system32\\api-ms-win-core-timezone-l1-1-0.dll',
   'BINARY'),
  ('pywintypes36.dll',
   'c:\\users\\mrzyglop\\appdata\\local\\programs\\python\\python36-32\\lib\\site-packages\\pypiwin32_system32\\pywintypes36.dll',
   'BINARY'),
  ('_multiprocessing',
   'c:\\users\\mrzyglop\\appdata\\local\\programs\\python\\python36-32\\DLLs\\_multiprocessing.pyd',
   'EXTENSION'),
  ('_decimal',
   'c:\\users\\mrzyglop\\appdata\\local\\programs\\python\\python36-32\\DLLs\\_decimal.pyd',
   'EXTENSION'),
  ('_ctypes',
   'c:\\users\\mrzyglop\\appdata\\local\\programs\\python\\python36-32\\DLLs\\_ctypes.pyd',
   'EXTENSION'),
  ('_asyncio',
   'c:\\users\\mrzyglop\\appdata\\local\\programs\\python\\python36-32\\DLLs\\_asyncio.pyd',
   'EXTENSION'),
  ('_overlapped',
   'c:\\users\\mrzyglop\\appdata\\local\\programs\\python\\python36-32\\DLLs\\_overlapped.pyd',
   'EXTENSION'),
  ('win32wnet',
   'c:\\users\\mrzyglop\\appdata\\local\\programs\\python\\python36-32\\lib\\site-packages\\win32\\win32wnet.pyd',
   'EXTENSION'),
  ('_win32sysloader',
   'c:\\users\\mrzyglop\\appdata\\local\\programs\\python\\python36-32\\lib\\site-packages\\win32\\_win32sysloader.pyd',
   'EXTENSION'),
  ('win32api',
   'c:\\users\\mrzyglop\\appdata\\local\\programs\\python\\python36-32\\lib\\site-packages\\win32\\win32api.pyd',
   'EXTENSION'),
  ('win32gui',
   'c:\\users\\mrzyglop\\appdata\\local\\programs\\python\\python36-32\\lib\\site-packages\\win32\\win32gui.pyd',
   'EXTENSION'),
  ('win32event',
   'c:\\users\\mrzyglop\\appdata\\local\\programs\\python\\python36-32\\lib\\site-packages\\win32\\win32event.pyd',
   'EXTENSION'),
  ('win32file',
   'c:\\users\\mrzyglop\\appdata\\local\\programs\\python\\python36-32\\lib\\site-packages\\win32\\win32file.pyd',
   'EXTENSION'),
  ('zope.interface._zope_interface_coptimizations',
   'c:\\users\\mrzyglop\\appdata\\local\\programs\\python\\python36-32\\lib\\site-packages\\zope\\interface\\_zope_interface_coptimizations.cp36-win32.pyd',
   'EXTENSION'),
  ('win32security',
   'c:\\users\\mrzyglop\\appdata\\local\\programs\\python\\python36-32\\lib\\site-packages\\win32\\win32security.pyd',
   'EXTENSION'),
  ('win32pipe',
   'c:\\users\\mrzyglop\\appdata\\local\\programs\\python\\python36-32\\lib\\site-packages\\win32\\win32pipe.pyd',
   'EXTENSION'),
  ('win32process',
   'c:\\users\\mrzyglop\\appdata\\local\\programs\\python\\python36-32\\lib\\site-packages\\win32\\win32process.pyd',
   'EXTENSION'),
  ('cryptography.hazmat.bindings._openssl',
   'c:\\users\\mrzyglop\\appdata\\local\\programs\\python\\python36-32\\lib\\site-packages\\cryptography\\hazmat\\bindings\\_openssl.pyd',
   'EXTENSION'),
  ('_cffi_backend',
   'c:\\users\\mrzyglop\\appdata\\local\\programs\\python\\python36-32\\lib\\site-packages\\_cffi_backend.cp36-win32.pyd',
   'EXTENSION'),
  ('cryptography.hazmat.bindings._constant_time',
   'c:\\users\\mrzyglop\\appdata\\local\\programs\\python\\python36-32\\lib\\site-packages\\cryptography\\hazmat\\bindings\\_constant_time.pyd',
   'EXTENSION'),
  ('_ssl',
   'c:\\users\\mrzyglop\\appdata\\local\\programs\\python\\python36-32\\DLLs\\_ssl.pyd',
   'EXTENSION'),
  ('unicodedata',
   'c:\\users\\mrzyglop\\appdata\\local\\programs\\python\\python36-32\\DLLs\\unicodedata.pyd',
   'EXTENSION'),
  ('pyexpat',
   'c:\\users\\mrzyglop\\appdata\\local\\programs\\python\\python36-32\\DLLs\\pyexpat.pyd',
   'EXTENSION'),
  ('_hashlib',
   'c:\\users\\mrzyglop\\appdata\\local\\programs\\python\\python36-32\\DLLs\\_hashlib.pyd',
   'EXTENSION'),
  ('_bz2',
   'c:\\users\\mrzyglop\\appdata\\local\\programs\\python\\python36-32\\DLLs\\_bz2.pyd',
   'EXTENSION'),
  ('_lzma',
   'c:\\users\\mrzyglop\\appdata\\local\\programs\\python\\python36-32\\DLLs\\_lzma.pyd',
   'EXTENSION'),
  ('_socket',
   'c:\\users\\mrzyglop\\appdata\\local\\programs\\python\\python36-32\\DLLs\\_socket.pyd',
   'EXTENSION'),
  ('select',
   'c:\\users\\mrzyglop\\appdata\\local\\programs\\python\\python36-32\\DLLs\\select.pyd',
   'EXTENSION'),
  ('win32evtlog',
   'c:\\users\\mrzyglop\\appdata\\local\\programs\\python\\python36-32\\lib\\site-packages\\win32\\win32evtlog.pyd',
   'EXTENSION'),
  ('lxml.etree',
   'c:\\users\\mrzyglop\\appdata\\local\\programs\\python\\python36-32\\lib\\site-packages\\lxml\\etree.cp36-win32.pyd',
   'EXTENSION'),
  ('lxml._elementpath',
   'c:\\users\\mrzyglop\\appdata\\local\\programs\\python\\python36-32\\lib\\site-packages\\lxml\\_elementpath.cp36-win32.pyd',
   'EXTENSION'),
  ('api-ms-win-crt-utility-l1-1-0.dll',
   'C:\\WINDOWS\\system32\\api-ms-win-crt-utility-l1-1-0.dll',
   'BINARY'),
  ('base_library.zip',
   'C:\\Users\\mrzyglop\\egospodarka\\build\\RaportBudownictwo\\base_library.zip',
   'DATA'),
  ('cryptography-2.1.4-py3.6.egg-info\\RECORD',
   'c:\\users\\mrzyglop\\appdata\\local\\programs\\python\\python36-32\\lib\\site-packages\\cryptography-2.1.4.dist-info\\RECORD',
   'DATA'),
  ('lib2to3\\tests\\data\\README',
   'c:\\users\\mrzyglop\\appdata\\local\\programs\\python\\python36-32\\lib\\lib2to3\\tests\\data\\README',
   'DATA'),
  ('cryptography-2.1.4-py3.6.egg-info\\metadata.json',
   'c:\\users\\mrzyglop\\appdata\\local\\programs\\python\\python36-32\\lib\\site-packages\\cryptography-2.1.4.dist-info\\metadata.json',
   'DATA'),
  ('lib2to3\\PatternGrammar3.6.2.candidate.2.pickle',
   'c:\\users\\mrzyglop\\appdata\\local\\programs\\python\\python36-32\\lib\\lib2to3\\PatternGrammar3.6.2.candidate.2.pickle',
   'DATA'),
  ('cryptography-2.1.4-py3.6.egg-info\\METADATA',
   'c:\\users\\mrzyglop\\appdata\\local\\programs\\python\\python36-32\\lib\\site-packages\\cryptography-2.1.4.dist-info\\METADATA',
   'DATA'),
  ('cryptography-2.1.4-py3.6.egg-info\\WHEEL',
   'c:\\users\\mrzyglop\\appdata\\local\\programs\\python\\python36-32\\lib\\site-packages\\cryptography-2.1.4.dist-info\\WHEEL',
   'DATA'),
  ('lib2to3\\PatternGrammar.txt',
   'c:\\users\\mrzyglop\\appdata\\local\\programs\\python\\python36-32\\lib\\lib2to3\\PatternGrammar.txt',
   'DATA'),
  ('lib2to3\\Grammar3.6.2.final.0.pickle',
   'c:\\users\\mrzyglop\\appdata\\local\\programs\\python\\python36-32\\lib\\lib2to3\\Grammar3.6.2.final.0.pickle',
   'DATA'),
  ('cryptography-2.1.4-py3.6.egg-info\\top_level.txt',
   'c:\\users\\mrzyglop\\appdata\\local\\programs\\python\\python36-32\\lib\\site-packages\\cryptography-2.1.4.dist-info\\top_level.txt',
   'DATA'),
  ('lib2to3\\Grammar.txt',
   'c:\\users\\mrzyglop\\appdata\\local\\programs\\python\\python36-32\\lib\\lib2to3\\Grammar.txt',
   'DATA'),
  ('lib2to3\\Grammar3.6.3.final.0.pickle',
   'c:\\users\\mrzyglop\\appdata\\local\\programs\\python\\python36-32\\lib\\lib2to3\\Grammar3.6.3.final.0.pickle',
   'DATA'),
  ('cryptography-2.1.4-py3.6.egg-info\\DESCRIPTION.rst',
   'c:\\users\\mrzyglop\\appdata\\local\\programs\\python\\python36-32\\lib\\site-packages\\cryptography-2.1.4.dist-info\\DESCRIPTION.rst',
   'DATA'),
  ('lib2to3\\PatternGrammar3.6.3.candidate.1.pickle',
   'c:\\users\\mrzyglop\\appdata\\local\\programs\\python\\python36-32\\lib\\lib2to3\\PatternGrammar3.6.3.candidate.1.pickle',
   'DATA'),
  ('lib2to3\\Grammar3.6.3.candidate.1.pickle',
   'c:\\users\\mrzyglop\\appdata\\local\\programs\\python\\python36-32\\lib\\lib2to3\\Grammar3.6.3.candidate.1.pickle',
   'DATA'),
  ('lib2to3\\PatternGrammar3.6.2.final.0.pickle',
   'c:\\users\\mrzyglop\\appdata\\local\\programs\\python\\python36-32\\lib\\lib2to3\\PatternGrammar3.6.2.final.0.pickle',
   'DATA'),
  ('cryptography-2.1.4-py3.6.egg-info\\INSTALLER',
   'c:\\users\\mrzyglop\\appdata\\local\\programs\\python\\python36-32\\lib\\site-packages\\cryptography-2.1.4.dist-info\\INSTALLER',
   'DATA'),
  ('lib2to3\\Grammar3.6.2.candidate.2.pickle',
   'c:\\users\\mrzyglop\\appdata\\local\\programs\\python\\python36-32\\lib\\lib2to3\\Grammar3.6.2.candidate.2.pickle',
   'DATA'),
  ('lib2to3\\PatternGrammar3.6.3.final.0.pickle',
   'c:\\users\\mrzyglop\\appdata\\local\\programs\\python\\python36-32\\lib\\lib2to3\\PatternGrammar3.6.3.final.0.pickle',
   'DATA'),
  ('Include\\pyconfig.h',
   'c:\\users\\mrzyglop\\appdata\\local\\programs\\python\\python36-32\\Include\\pyconfig.h',
   'DATA')],)
