('C:\\Users\\mrzyglop\\egospodarka\\build\\RaportBudownictwo\\out00-PYZ.pyz',
 [('twisted.internet.default',
   'c:\\users\\mrzyglop\\appdata\\local\\programs\\python\\python36-32\\lib\\site-packages\\twisted\\internet\\default.py',
   'PYMODULE'),
  ('twisted.internet.selectreactor',
   'c:\\users\\mrzyglop\\appdata\\local\\programs\\python\\python36-32\\lib\\site-packages\\twisted\\internet\\selectreactor.py',
   'PYMODULE'),
  ('twisted.internet.main',
   'c:\\users\\mrzyglop\\appdata\\local\\programs\\python\\python36-32\\lib\\site-packages\\twisted\\internet\\main.py',
   'PYMODULE'),
  ('twisted.internet.error',
   'c:\\users\\mrzyglop\\appdata\\local\\programs\\python\\python36-32\\lib\\site-packages\\twisted\\internet\\error.py',
   'PYMODULE'),
  ('incremental',
   'c:\\users\\mrzyglop\\appdata\\local\\programs\\python\\python36-32\\lib\\site-packages\\incremental\\__init__.py',
   'PYMODULE'),
  ('incremental._version',
   'c:\\users\\mrzyglop\\appdata\\local\\programs\\python\\python36-32\\lib\\site-packages\\incremental\\_version.py',
   'PYMODULE'),
  ('distutils.command.build_py',
   'c:\\users\\mrzyglop\\appdata\\local\\programs\\python\\python36-32\\lib\\distutils\\command\\build_py.py',
   'PYMODULE'),
  ('distutils.log',
   'c:\\users\\mrzyglop\\appdata\\local\\programs\\python\\python36-32\\lib\\distutils\\log.py',
   'PYMODULE'),
  ('distutils',
   'c:\\users\\mrzyglop\\appdata\\local\\programs\\python\\python36-32\\lib\\distutils\\__init__.py',
   'PYMODULE'),
  ('distutils.archive_util',
   'c:\\users\\mrzyglop\\appdata\\local\\programs\\python\\python36-32\\lib\\distutils\\archive_util.py',
   'PYMODULE'),
  ('distutils.dir_util',
   'c:\\users\\mrzyglop\\appdata\\local\\programs\\python\\python36-32\\lib\\distutils\\dir_util.py',
   'PYMODULE'),
  ('distutils.file_util',
   'c:\\users\\mrzyglop\\appdata\\local\\programs\\python\\python36-32\\lib\\distutils\\file_util.py',
   'PYMODULE'),
  ('distutils.dep_util',
   'c:\\users\\mrzyglop\\appdata\\local\\programs\\python\\python36-32\\lib\\distutils\\dep_util.py',
   'PYMODULE'),
  ('distutils.spawn',
   'c:\\users\\mrzyglop\\appdata\\local\\programs\\python\\python36-32\\lib\\distutils\\spawn.py',
   'PYMODULE'),
  ('distutils.debug',
   'c:\\users\\mrzyglop\\appdata\\local\\programs\\python\\python36-32\\lib\\distutils\\debug.py',
   'PYMODULE'),
  ('distutils.sysconfig',
   'c:\\users\\mrzyglop\\appdata\\local\\programs\\python\\python36-32\\lib\\distutils\\sysconfig.py',
   'PYMODULE'),
  ('distutils.text_file',
   'c:\\users\\mrzyglop\\appdata\\local\\programs\\python\\python36-32\\lib\\distutils\\text_file.py',
   'PYMODULE'),
  ('_osx_support',
   'c:\\users\\mrzyglop\\appdata\\local\\programs\\python\\python36-32\\lib\\_osx_support.py',
   'PYMODULE'),
  ('distutils.util',
   'c:\\users\\mrzyglop\\appdata\\local\\programs\\python\\python36-32\\lib\\distutils\\util.py',
   'PYMODULE'),
  ('distutils.filelist',
   'c:\\users\\mrzyglop\\appdata\\local\\programs\\python\\python36-32\\lib\\distutils\\filelist.py',
   'PYMODULE'),
  ('lib2to3.refactor',
   'c:\\users\\mrzyglop\\appdata\\local\\programs\\python\\python36-32\\lib\\lib2to3\\refactor.py',
   'PYMODULE'),
  ('multiprocessing',
   'c:\\users\\mrzyglop\\appdata\\local\\programs\\python\\python36-32\\lib\\multiprocessing\\__init__.py',
   'PYMODULE'),
  ('multiprocessing.spawn',
   'c:\\users\\mrzyglop\\appdata\\local\\programs\\python\\python36-32\\lib\\multiprocessing\\spawn.py',
   'PYMODULE'),
  ('runpy',
   'c:\\users\\mrzyglop\\appdata\\local\\programs\\python\\python36-32\\lib\\runpy.py',
   'PYMODULE'),
  ('multiprocessing.semaphore_tracker',
   'c:\\users\\mrzyglop\\appdata\\local\\programs\\python\\python36-32\\lib\\multiprocessing\\semaphore_tracker.py',
   'PYMODULE'),
  ('multiprocessing.pool',
   'c:\\users\\mrzyglop\\appdata\\local\\programs\\python\\python36-32\\lib\\multiprocessing\\pool.py',
   'PYMODULE'),
  ('multiprocessing.dummy',
   'c:\\users\\mrzyglop\\appdata\\local\\programs\\python\\python36-32\\lib\\multiprocessing\\dummy\\__init__.py',
   'PYMODULE'),
  ('multiprocessing.dummy.connection',
   'c:\\users\\mrzyglop\\appdata\\local\\programs\\python\\python36-32\\lib\\multiprocessing\\dummy\\connection.py',
   'PYMODULE'),
  ('queue',
   'c:\\users\\mrzyglop\\appdata\\local\\programs\\python\\python36-32\\lib\\queue.py',
   'PYMODULE'),
  ('multiprocessing.reduction',
   'c:\\users\\mrzyglop\\appdata\\local\\programs\\python\\python36-32\\lib\\multiprocessing\\reduction.py',
   'PYMODULE'),
  ('multiprocessing.resource_sharer',
   'c:\\users\\mrzyglop\\appdata\\local\\programs\\python\\python36-32\\lib\\multiprocessing\\resource_sharer.py',
   'PYMODULE'),
  ('multiprocessing.connection',
   'c:\\users\\mrzyglop\\appdata\\local\\programs\\python\\python36-32\\lib\\multiprocessing\\connection.py',
   'PYMODULE'),
  ('xmlrpc.client',
   'c:\\users\\mrzyglop\\appdata\\local\\programs\\python\\python36-32\\lib\\xmlrpc\\client.py',
   'PYMODULE'),
  ('xmlrpc',
   'c:\\users\\mrzyglop\\appdata\\local\\programs\\python\\python36-32\\lib\\xmlrpc\\__init__.py',
   'PYMODULE'),
  ('decimal',
   'c:\\users\\mrzyglop\\appdata\\local\\programs\\python\\python36-32\\lib\\decimal.py',
   'PYMODULE'),
  ('_pydecimal',
   'c:\\users\\mrzyglop\\appdata\\local\\programs\\python\\python36-32\\lib\\_pydecimal.py',
   'PYMODULE'),
  ('numbers',
   'c:\\users\\mrzyglop\\appdata\\local\\programs\\python\\python36-32\\lib\\numbers.py',
   'PYMODULE'),
  ('hmac',
   'c:\\users\\mrzyglop\\appdata\\local\\programs\\python\\python36-32\\lib\\hmac.py',
   'PYMODULE'),
  ('multiprocessing.context',
   'c:\\users\\mrzyglop\\appdata\\local\\programs\\python\\python36-32\\lib\\multiprocessing\\context.py',
   'PYMODULE'),
  ('multiprocessing.popen_spawn_win32',
   'c:\\users\\mrzyglop\\appdata\\local\\programs\\python\\python36-32\\lib\\multiprocessing\\popen_spawn_win32.py',
   'PYMODULE'),
  ('multiprocessing.popen_forkserver',
   'c:\\users\\mrzyglop\\appdata\\local\\programs\\python\\python36-32\\lib\\multiprocessing\\popen_forkserver.py',
   'PYMODULE'),
  ('multiprocessing.popen_spawn_posix',
   'c:\\users\\mrzyglop\\appdata\\local\\programs\\python\\python36-32\\lib\\multiprocessing\\popen_spawn_posix.py',
   'PYMODULE'),
  ('multiprocessing.popen_fork',
   'c:\\users\\mrzyglop\\appdata\\local\\programs\\python\\python36-32\\lib\\multiprocessing\\popen_fork.py',
   'PYMODULE'),
  ('multiprocessing.forkserver',
   'c:\\users\\mrzyglop\\appdata\\local\\programs\\python\\python36-32\\lib\\multiprocessing\\forkserver.py',
   'PYMODULE'),
  ('multiprocessing.sharedctypes',
   'c:\\users\\mrzyglop\\appdata\\local\\programs\\python\\python36-32\\lib\\multiprocessing\\sharedctypes.py',
   'PYMODULE'),
  ('multiprocessing.heap',
   'c:\\users\\mrzyglop\\appdata\\local\\programs\\python\\python36-32\\lib\\multiprocessing\\heap.py',
   'PYMODULE'),
  ('ctypes',
   'c:\\users\\mrzyglop\\appdata\\local\\programs\\python\\python36-32\\lib\\ctypes\\__init__.py',
   'PYMODULE'),
  ('ctypes._endian',
   'c:\\users\\mrzyglop\\appdata\\local\\programs\\python\\python36-32\\lib\\ctypes\\_endian.py',
   'PYMODULE'),
  ('multiprocessing.queues',
   'c:\\users\\mrzyglop\\appdata\\local\\programs\\python\\python36-32\\lib\\multiprocessing\\queues.py',
   'PYMODULE'),
  ('multiprocessing.synchronize',
   'c:\\users\\mrzyglop\\appdata\\local\\programs\\python\\python36-32\\lib\\multiprocessing\\synchronize.py',
   'PYMODULE'),
  ('multiprocessing.managers',
   'c:\\users\\mrzyglop\\appdata\\local\\programs\\python\\python36-32\\lib\\multiprocessing\\managers.py',
   'PYMODULE'),
  ('multiprocessing.util',
   'c:\\users\\mrzyglop\\appdata\\local\\programs\\python\\python36-32\\lib\\multiprocessing\\util.py',
   'PYMODULE'),
  ('multiprocessing.process',
   'c:\\users\\mrzyglop\\appdata\\local\\programs\\python\\python36-32\\lib\\multiprocessing\\process.py',
   'PYMODULE'),
  ('lib2to3.btm_matcher',
   'c:\\users\\mrzyglop\\appdata\\local\\programs\\python\\python36-32\\lib\\lib2to3\\btm_matcher.py',
   'PYMODULE'),
  ('lib2to3.btm_utils',
   'c:\\users\\mrzyglop\\appdata\\local\\programs\\python\\python36-32\\lib\\lib2to3\\btm_utils.py',
   'PYMODULE'),
  ('lib2to3.pgen2.grammar',
   'c:\\users\\mrzyglop\\appdata\\local\\programs\\python\\python36-32\\lib\\lib2to3\\pgen2\\grammar.py',
   'PYMODULE'),
  ('lib2to3.pygram',
   'c:\\users\\mrzyglop\\appdata\\local\\programs\\python\\python36-32\\lib\\lib2to3\\pygram.py',
   'PYMODULE'),
  ('lib2to3.pytree',
   'c:\\users\\mrzyglop\\appdata\\local\\programs\\python\\python36-32\\lib\\lib2to3\\pytree.py',
   'PYMODULE'),
  ('lib2to3',
   'c:\\users\\mrzyglop\\appdata\\local\\programs\\python\\python36-32\\lib\\lib2to3\\__init__.py',
   'PYMODULE'),
  ('lib2to3.patcomp',
   'c:\\users\\mrzyglop\\appdata\\local\\programs\\python\\python36-32\\lib\\lib2to3\\patcomp.py',
   'PYMODULE'),
  ('lib2to3.pgen2.parse',
   'c:\\users\\mrzyglop\\appdata\\local\\programs\\python\\python36-32\\lib\\lib2to3\\pgen2\\parse.py',
   'PYMODULE'),
  ('lib2to3.pgen2.literals',
   'c:\\users\\mrzyglop\\appdata\\local\\programs\\python\\python36-32\\lib\\lib2to3\\pgen2\\literals.py',
   'PYMODULE'),
  ('lib2to3.fixer_util',
   'c:\\users\\mrzyglop\\appdata\\local\\programs\\python\\python36-32\\lib\\lib2to3\\fixer_util.py',
   'PYMODULE'),
  ('lib2to3.pgen2.token',
   'c:\\users\\mrzyglop\\appdata\\local\\programs\\python\\python36-32\\lib\\lib2to3\\pgen2\\token.py',
   'PYMODULE'),
  ('lib2to3.pgen2.tokenize',
   'c:\\users\\mrzyglop\\appdata\\local\\programs\\python\\python36-32\\lib\\lib2to3\\pgen2\\tokenize.py',
   'PYMODULE'),
  ('lib2to3.pgen2.driver',
   'c:\\users\\mrzyglop\\appdata\\local\\programs\\python\\python36-32\\lib\\lib2to3\\pgen2\\driver.py',
   'PYMODULE'),
  ('lib2to3.pgen2.pgen',
   'c:\\users\\mrzyglop\\appdata\\local\\programs\\python\\python36-32\\lib\\lib2to3\\pgen2\\pgen.py',
   'PYMODULE'),
  ('lib2to3.pgen2',
   'c:\\users\\mrzyglop\\appdata\\local\\programs\\python\\python36-32\\lib\\lib2to3\\pgen2\\__init__.py',
   'PYMODULE'),
  ('distutils.errors',
   'c:\\users\\mrzyglop\\appdata\\local\\programs\\python\\python36-32\\lib\\distutils\\errors.py',
   'PYMODULE'),
  ('distutils.core',
   'c:\\users\\mrzyglop\\appdata\\local\\programs\\python\\python36-32\\lib\\distutils\\core.py',
   'PYMODULE'),
  ('distutils.extension',
   'c:\\users\\mrzyglop\\appdata\\local\\programs\\python\\python36-32\\lib\\distutils\\extension.py',
   'PYMODULE'),
  ('distutils.config',
   'c:\\users\\mrzyglop\\appdata\\local\\programs\\python\\python36-32\\lib\\distutils\\config.py',
   'PYMODULE'),
  ('cgi',
   'c:\\users\\mrzyglop\\appdata\\local\\programs\\python\\python36-32\\lib\\cgi.py',
   'PYMODULE'),
  ('configparser',
   'c:\\users\\mrzyglop\\appdata\\local\\programs\\python\\python36-32\\lib\\configparser.py',
   'PYMODULE'),
  ('distutils.cmd',
   'c:\\users\\mrzyglop\\appdata\\local\\programs\\python\\python36-32\\lib\\distutils\\cmd.py',
   'PYMODULE'),
  ('distutils.fancy_getopt',
   'c:\\users\\mrzyglop\\appdata\\local\\programs\\python\\python36-32\\lib\\distutils\\fancy_getopt.py',
   'PYMODULE'),
  ('distutils.dist',
   'c:\\users\\mrzyglop\\appdata\\local\\programs\\python\\python36-32\\lib\\distutils\\dist.py',
   'PYMODULE'),
  ('distutils.versionpredicate',
   'c:\\users\\mrzyglop\\appdata\\local\\programs\\python\\python36-32\\lib\\distutils\\versionpredicate.py',
   'PYMODULE'),
  ('distutils.version',
   'c:\\users\\mrzyglop\\appdata\\local\\programs\\python\\python36-32\\lib\\distutils\\version.py',
   'PYMODULE'),
  ('distutils.command',
   'c:\\users\\mrzyglop\\appdata\\local\\programs\\python\\python36-32\\lib\\distutils\\command\\__init__.py',
   'PYMODULE'),
  ('twisted.python.deprecate',
   'c:\\users\\mrzyglop\\appdata\\local\\programs\\python\\python36-32\\lib\\site-packages\\twisted\\python\\deprecate.py',
   'PYMODULE'),
  ('twisted.python.compat',
   'c:\\users\\mrzyglop\\appdata\\local\\programs\\python\\python36-32\\lib\\site-packages\\twisted\\python\\compat.py',
   'PYMODULE'),
  ('http.cookiejar',
   'c:\\users\\mrzyglop\\appdata\\local\\programs\\python\\python36-32\\lib\\http\\cookiejar.py',
   'PYMODULE'),
  ('urllib.request',
   'c:\\users\\mrzyglop\\appdata\\local\\programs\\python\\python36-32\\lib\\urllib\\request.py',
   'PYMODULE'),
  ('getpass',
   'c:\\users\\mrzyglop\\appdata\\local\\programs\\python\\python36-32\\lib\\getpass.py',
   'PYMODULE'),
  ('nturl2path',
   'c:\\users\\mrzyglop\\appdata\\local\\programs\\python\\python36-32\\lib\\nturl2path.py',
   'PYMODULE'),
  ('ftplib',
   'c:\\users\\mrzyglop\\appdata\\local\\programs\\python\\python36-32\\lib\\ftplib.py',
   'PYMODULE'),
  ('netrc',
   'c:\\users\\mrzyglop\\appdata\\local\\programs\\python\\python36-32\\lib\\netrc.py',
   'PYMODULE'),
  ('urllib.response',
   'c:\\users\\mrzyglop\\appdata\\local\\programs\\python\\python36-32\\lib\\urllib\\response.py',
   'PYMODULE'),
  ('urllib.error',
   'c:\\users\\mrzyglop\\appdata\\local\\programs\\python\\python36-32\\lib\\urllib\\error.py',
   'PYMODULE'),
  ('twisted.internet.win32eventreactor',
   'c:\\users\\mrzyglop\\appdata\\local\\programs\\python\\python36-32\\lib\\site-packages\\twisted\\internet\\win32eventreactor.py',
   'PYMODULE'),
  ('twisted.internet.threads',
   'c:\\users\\mrzyglop\\appdata\\local\\programs\\python\\python36-32\\lib\\site-packages\\twisted\\internet\\threads.py',
   'PYMODULE'),
  ('twisted.internet.defer',
   'c:\\users\\mrzyglop\\appdata\\local\\programs\\python\\python36-32\\lib\\site-packages\\twisted\\internet\\defer.py',
   'PYMODULE'),
  ('asyncio',
   'c:\\users\\mrzyglop\\appdata\\local\\programs\\python\\python36-32\\lib\\asyncio\\__init__.py',
   'PYMODULE'),
  ('asyncio.unix_events',
   'c:\\users\\mrzyglop\\appdata\\local\\programs\\python\\python36-32\\lib\\asyncio\\unix_events.py',
   'PYMODULE'),
  ('asyncio.log',
   'c:\\users\\mrzyglop\\appdata\\local\\programs\\python\\python36-32\\lib\\asyncio\\log.py',
   'PYMODULE'),
  ('asyncio.windows_events',
   'c:\\users\\mrzyglop\\appdata\\local\\programs\\python\\python36-32\\lib\\asyncio\\windows_events.py',
   'PYMODULE'),
  ('asyncio.windows_utils',
   'c:\\users\\mrzyglop\\appdata\\local\\programs\\python\\python36-32\\lib\\asyncio\\windows_utils.py',
   'PYMODULE'),
  ('asyncio.selector_events',
   'c:\\users\\mrzyglop\\appdata\\local\\programs\\python\\python36-32\\lib\\asyncio\\selector_events.py',
   'PYMODULE'),
  ('asyncio.proactor_events',
   'c:\\users\\mrzyglop\\appdata\\local\\programs\\python\\python36-32\\lib\\asyncio\\proactor_events.py',
   'PYMODULE'),
  ('asyncio.sslproto',
   'c:\\users\\mrzyglop\\appdata\\local\\programs\\python\\python36-32\\lib\\asyncio\\sslproto.py',
   'PYMODULE'),
  ('asyncio.constants',
   'c:\\users\\mrzyglop\\appdata\\local\\programs\\python\\python36-32\\lib\\asyncio\\constants.py',
   'PYMODULE'),
  ('asyncio.base_subprocess',
   'c:\\users\\mrzyglop\\appdata\\local\\programs\\python\\python36-32\\lib\\asyncio\\base_subprocess.py',
   'PYMODULE'),
  ('asyncio.transports',
   'c:\\users\\mrzyglop\\appdata\\local\\programs\\python\\python36-32\\lib\\asyncio\\transports.py',
   'PYMODULE'),
  ('asyncio.subprocess',
   'c:\\users\\mrzyglop\\appdata\\local\\programs\\python\\python36-32\\lib\\asyncio\\subprocess.py',
   'PYMODULE'),
  ('asyncio.streams',
   'c:\\users\\mrzyglop\\appdata\\local\\programs\\python\\python36-32\\lib\\asyncio\\streams.py',
   'PYMODULE'),
  ('asyncio.queues',
   'c:\\users\\mrzyglop\\appdata\\local\\programs\\python\\python36-32\\lib\\asyncio\\queues.py',
   'PYMODULE'),
  ('asyncio.protocols',
   'c:\\users\\mrzyglop\\appdata\\local\\programs\\python\\python36-32\\lib\\asyncio\\protocols.py',
   'PYMODULE'),
  ('asyncio.base_events',
   'c:\\users\\mrzyglop\\appdata\\local\\programs\\python\\python36-32\\lib\\asyncio\\base_events.py',
   'PYMODULE'),
  ('concurrent.futures',
   'c:\\users\\mrzyglop\\appdata\\local\\programs\\python\\python36-32\\lib\\concurrent\\futures\\__init__.py',
   'PYMODULE'),
  ('concurrent.futures.thread',
   'c:\\users\\mrzyglop\\appdata\\local\\programs\\python\\python36-32\\lib\\concurrent\\futures\\thread.py',
   'PYMODULE'),
  ('concurrent.futures.process',
   'c:\\users\\mrzyglop\\appdata\\local\\programs\\python\\python36-32\\lib\\concurrent\\futures\\process.py',
   'PYMODULE'),
  ('concurrent.futures._base',
   'c:\\users\\mrzyglop\\appdata\\local\\programs\\python\\python36-32\\lib\\concurrent\\futures\\_base.py',
   'PYMODULE'),
  ('concurrent',
   'c:\\users\\mrzyglop\\appdata\\local\\programs\\python\\python36-32\\lib\\concurrent\\__init__.py',
   'PYMODULE'),
  ('asyncio.tasks',
   'c:\\users\\mrzyglop\\appdata\\local\\programs\\python\\python36-32\\lib\\asyncio\\tasks.py',
   'PYMODULE'),
  ('asyncio.locks',
   'c:\\users\\mrzyglop\\appdata\\local\\programs\\python\\python36-32\\lib\\asyncio\\locks.py',
   'PYMODULE'),
  ('asyncio.base_tasks',
   'c:\\users\\mrzyglop\\appdata\\local\\programs\\python\\python36-32\\lib\\asyncio\\base_tasks.py',
   'PYMODULE'),
  ('asyncio.futures',
   'c:\\users\\mrzyglop\\appdata\\local\\programs\\python\\python36-32\\lib\\asyncio\\futures.py',
   'PYMODULE'),
  ('asyncio.coroutines',
   'c:\\users\\mrzyglop\\appdata\\local\\programs\\python\\python36-32\\lib\\asyncio\\coroutines.py',
   'PYMODULE'),
  ('asyncio.base_futures',
   'c:\\users\\mrzyglop\\appdata\\local\\programs\\python\\python36-32\\lib\\asyncio\\base_futures.py',
   'PYMODULE'),
  ('asyncio.events',
   'c:\\users\\mrzyglop\\appdata\\local\\programs\\python\\python36-32\\lib\\asyncio\\events.py',
   'PYMODULE'),
  ('asyncio.compat',
   'c:\\users\\mrzyglop\\appdata\\local\\programs\\python\\python36-32\\lib\\asyncio\\compat.py',
   'PYMODULE'),
  ('twisted.python._oldstyle',
   'c:\\users\\mrzyglop\\appdata\\local\\programs\\python\\python36-32\\lib\\site-packages\\twisted\\python\\_oldstyle.py',
   'PYMODULE'),
  ('twisted.python.reflect',
   'c:\\users\\mrzyglop\\appdata\\local\\programs\\python\\python36-32\\lib\\site-packages\\twisted\\python\\reflect.py',
   'PYMODULE'),
  ('twisted.logger',
   'c:\\users\\mrzyglop\\appdata\\local\\programs\\python\\python36-32\\lib\\site-packages\\twisted\\logger\\__init__.py',
   'PYMODULE'),
  ('twisted',
   'c:\\users\\mrzyglop\\appdata\\local\\programs\\python\\python36-32\\lib\\site-packages\\twisted\\__init__.py',
   'PYMODULE'),
  ('twisted._version',
   'c:\\users\\mrzyglop\\appdata\\local\\programs\\python\\python36-32\\lib\\site-packages\\twisted\\_version.py',
   'PYMODULE'),
  ('twisted.logger._json',
   'c:\\users\\mrzyglop\\appdata\\local\\programs\\python\\python36-32\\lib\\site-packages\\twisted\\logger\\_json.py',
   'PYMODULE'),
  ('uuid',
   'c:\\users\\mrzyglop\\appdata\\local\\programs\\python\\python36-32\\lib\\uuid.py',
   'PYMODULE'),
  ('ctypes.util',
   'c:\\users\\mrzyglop\\appdata\\local\\programs\\python\\python36-32\\lib\\ctypes\\util.py',
   'PYMODULE'),
  ('ctypes.macholib.dyld',
   'c:\\users\\mrzyglop\\appdata\\local\\programs\\python\\python36-32\\lib\\ctypes\\macholib\\dyld.py',
   'PYMODULE'),
  ('ctypes.macholib',
   'c:\\users\\mrzyglop\\appdata\\local\\programs\\python\\python36-32\\lib\\ctypes\\macholib\\__init__.py',
   'PYMODULE'),
  ('ctypes.macholib.dylib',
   'c:\\users\\mrzyglop\\appdata\\local\\programs\\python\\python36-32\\lib\\ctypes\\macholib\\dylib.py',
   'PYMODULE'),
  ('ctypes.macholib.framework',
   'c:\\users\\mrzyglop\\appdata\\local\\programs\\python\\python36-32\\lib\\ctypes\\macholib\\framework.py',
   'PYMODULE'),
  ('netbios',
   'c:\\users\\mrzyglop\\appdata\\local\\programs\\python\\python36-32\\lib\\site-packages\\win32\\lib\\netbios.py',
   'PYMODULE'),
  ('json',
   'c:\\users\\mrzyglop\\appdata\\local\\programs\\python\\python36-32\\lib\\json\\__init__.py',
   'PYMODULE'),
  ('json.encoder',
   'c:\\users\\mrzyglop\\appdata\\local\\programs\\python\\python36-32\\lib\\json\\encoder.py',
   'PYMODULE'),
  ('json.decoder',
   'c:\\users\\mrzyglop\\appdata\\local\\programs\\python\\python36-32\\lib\\json\\decoder.py',
   'PYMODULE'),
  ('json.scanner',
   'c:\\users\\mrzyglop\\appdata\\local\\programs\\python\\python36-32\\lib\\json\\scanner.py',
   'PYMODULE'),
  ('constantly',
   'c:\\users\\mrzyglop\\appdata\\local\\programs\\python\\python36-32\\lib\\site-packages\\constantly\\__init__.py',
   'PYMODULE'),
  ('constantly._version',
   'c:\\users\\mrzyglop\\appdata\\local\\programs\\python\\python36-32\\lib\\site-packages\\constantly\\_version.py',
   'PYMODULE'),
  ('constantly._constants',
   'c:\\users\\mrzyglop\\appdata\\local\\programs\\python\\python36-32\\lib\\site-packages\\constantly\\_constants.py',
   'PYMODULE'),
  ('twisted.logger._global',
   'c:\\users\\mrzyglop\\appdata\\local\\programs\\python\\python36-32\\lib\\site-packages\\twisted\\logger\\_global.py',
   'PYMODULE'),
  ('twisted.logger._legacy',
   'c:\\users\\mrzyglop\\appdata\\local\\programs\\python\\python36-32\\lib\\site-packages\\twisted\\logger\\_legacy.py',
   'PYMODULE'),
  ('twisted.logger._io',
   'c:\\users\\mrzyglop\\appdata\\local\\programs\\python\\python36-32\\lib\\site-packages\\twisted\\logger\\_io.py',
   'PYMODULE'),
  ('twisted.logger._stdlib',
   'c:\\users\\mrzyglop\\appdata\\local\\programs\\python\\python36-32\\lib\\site-packages\\twisted\\logger\\_stdlib.py',
   'PYMODULE'),
  ('twisted.logger._filter',
   'c:\\users\\mrzyglop\\appdata\\local\\programs\\python\\python36-32\\lib\\site-packages\\twisted\\logger\\_filter.py',
   'PYMODULE'),
  ('twisted.logger._file',
   'c:\\users\\mrzyglop\\appdata\\local\\programs\\python\\python36-32\\lib\\site-packages\\twisted\\logger\\_file.py',
   'PYMODULE'),
  ('twisted.logger._buffer',
   'c:\\users\\mrzyglop\\appdata\\local\\programs\\python\\python36-32\\lib\\site-packages\\twisted\\logger\\_buffer.py',
   'PYMODULE'),
  ('twisted.logger._observer',
   'c:\\users\\mrzyglop\\appdata\\local\\programs\\python\\python36-32\\lib\\site-packages\\twisted\\logger\\_observer.py',
   'PYMODULE'),
  ('twisted.logger._logger',
   'c:\\users\\mrzyglop\\appdata\\local\\programs\\python\\python36-32\\lib\\site-packages\\twisted\\logger\\_logger.py',
   'PYMODULE'),
  ('twisted.logger._format',
   'c:\\users\\mrzyglop\\appdata\\local\\programs\\python\\python36-32\\lib\\site-packages\\twisted\\logger\\_format.py',
   'PYMODULE'),
  ('twisted.python._tzhelper',
   'c:\\users\\mrzyglop\\appdata\\local\\programs\\python\\python36-32\\lib\\site-packages\\twisted\\python\\_tzhelper.py',
   'PYMODULE'),
  ('twisted.logger._flatten',
   'c:\\users\\mrzyglop\\appdata\\local\\programs\\python\\python36-32\\lib\\site-packages\\twisted\\logger\\_flatten.py',
   'PYMODULE'),
  ('twisted.logger._levels',
   'c:\\users\\mrzyglop\\appdata\\local\\programs\\python\\python36-32\\lib\\site-packages\\twisted\\logger\\_levels.py',
   'PYMODULE'),
  ('twisted.python.lockfile',
   'c:\\users\\mrzyglop\\appdata\\local\\programs\\python\\python36-32\\lib\\site-packages\\twisted\\python\\lockfile.py',
   'PYMODULE'),
  ('pywintypes',
   'c:\\users\\mrzyglop\\appdata\\local\\programs\\python\\python36-32\\lib\\site-packages\\win32\\lib\\pywintypes.py',
   'PYMODULE'),
  ('imp',
   'c:\\users\\mrzyglop\\appdata\\local\\programs\\python\\python36-32\\lib\\imp.py',
   'PYMODULE'),
  ('twisted.python.failure',
   'c:\\users\\mrzyglop\\appdata\\local\\programs\\python\\python36-32\\lib\\site-packages\\twisted\\python\\failure.py',
   'PYMODULE'),
  ('twisted.python.threadable',
   'c:\\users\\mrzyglop\\appdata\\local\\programs\\python\\python36-32\\lib\\site-packages\\twisted\\python\\threadable.py',
   'PYMODULE'),
  ('twisted.python.log',
   'c:\\users\\mrzyglop\\appdata\\local\\programs\\python\\python36-32\\lib\\site-packages\\twisted\\python\\log.py',
   'PYMODULE'),
  ('twisted.python.util',
   'c:\\users\\mrzyglop\\appdata\\local\\programs\\python\\python36-32\\lib\\site-packages\\twisted\\python\\util.py',
   'PYMODULE'),
  ('twisted.python.context',
   'c:\\users\\mrzyglop\\appdata\\local\\programs\\python\\python36-32\\lib\\site-packages\\twisted\\python\\context.py',
   'PYMODULE'),
  ('twisted.python',
   'c:\\users\\mrzyglop\\appdata\\local\\programs\\python\\python36-32\\lib\\site-packages\\twisted\\python\\__init__.py',
   'PYMODULE'),
  ('twisted.python.sendmsg',
   'c:\\users\\mrzyglop\\appdata\\local\\programs\\python\\python36-32\\lib\\site-packages\\twisted\\python\\sendmsg.py',
   'PYMODULE'),
  ('twisted.python.components',
   'c:\\users\\mrzyglop\\appdata\\local\\programs\\python\\python36-32\\lib\\site-packages\\twisted\\python\\components.py',
   'PYMODULE'),
  ('zope.interface.adapter',
   'c:\\users\\mrzyglop\\appdata\\local\\programs\\python\\python36-32\\lib\\site-packages\\zope\\interface\\adapter.py',
   'PYMODULE'),
  ('zope.interface._compat',
   'c:\\users\\mrzyglop\\appdata\\local\\programs\\python\\python36-32\\lib\\site-packages\\zope\\interface\\_compat.py',
   'PYMODULE'),
  ('zope.interface.interfaces',
   'c:\\users\\mrzyglop\\appdata\\local\\programs\\python\\python36-32\\lib\\site-packages\\zope\\interface\\interfaces.py',
   'PYMODULE'),
  ('zope.interface.ro',
   'c:\\users\\mrzyglop\\appdata\\local\\programs\\python\\python36-32\\lib\\site-packages\\zope\\interface\\ro.py',
   'PYMODULE'),
  ('zope.interface.declarations',
   'c:\\users\\mrzyglop\\appdata\\local\\programs\\python\\python36-32\\lib\\site-packages\\zope\\interface\\declarations.py',
   'PYMODULE'),
  ('zope.interface.advice',
   'c:\\users\\mrzyglop\\appdata\\local\\programs\\python\\python36-32\\lib\\site-packages\\zope\\interface\\advice.py',
   'PYMODULE'),
  ('zope.interface.interface',
   'c:\\users\\mrzyglop\\appdata\\local\\programs\\python\\python36-32\\lib\\site-packages\\zope\\interface\\interface.py',
   'PYMODULE'),
  ('zope.interface.exceptions',
   'c:\\users\\mrzyglop\\appdata\\local\\programs\\python\\python36-32\\lib\\site-packages\\zope\\interface\\exceptions.py',
   'PYMODULE'),
  ('twisted.python.threadpool',
   'c:\\users\\mrzyglop\\appdata\\local\\programs\\python\\python36-32\\lib\\site-packages\\twisted\\python\\threadpool.py',
   'PYMODULE'),
  ('twisted._threads',
   'c:\\users\\mrzyglop\\appdata\\local\\programs\\python\\python36-32\\lib\\site-packages\\twisted\\_threads\\__init__.py',
   'PYMODULE'),
  ('twisted._threads._pool',
   'c:\\users\\mrzyglop\\appdata\\local\\programs\\python\\python36-32\\lib\\site-packages\\twisted\\_threads\\_pool.py',
   'PYMODULE'),
  ('twisted._threads._memory',
   'c:\\users\\mrzyglop\\appdata\\local\\programs\\python\\python36-32\\lib\\site-packages\\twisted\\_threads\\_memory.py',
   'PYMODULE'),
  ('twisted._threads._convenience',
   'c:\\users\\mrzyglop\\appdata\\local\\programs\\python\\python36-32\\lib\\site-packages\\twisted\\_threads\\_convenience.py',
   'PYMODULE'),
  ('twisted._threads._team',
   'c:\\users\\mrzyglop\\appdata\\local\\programs\\python\\python36-32\\lib\\site-packages\\twisted\\_threads\\_team.py',
   'PYMODULE'),
  ('twisted._threads._ithreads',
   'c:\\users\\mrzyglop\\appdata\\local\\programs\\python\\python36-32\\lib\\site-packages\\twisted\\_threads\\_ithreads.py',
   'PYMODULE'),
  ('twisted._threads._threadworker',
   'c:\\users\\mrzyglop\\appdata\\local\\programs\\python\\python36-32\\lib\\site-packages\\twisted\\_threads\\_threadworker.py',
   'PYMODULE'),
  ('twisted.python.versions',
   'c:\\users\\mrzyglop\\appdata\\local\\programs\\python\\python36-32\\lib\\site-packages\\twisted\\python\\versions.py',
   'PYMODULE'),
  ('twisted.internet.posixbase',
   'c:\\users\\mrzyglop\\appdata\\local\\programs\\python\\python36-32\\lib\\site-packages\\twisted\\internet\\posixbase.py',
   'PYMODULE'),
  ('twisted.internet.task',
   'c:\\users\\mrzyglop\\appdata\\local\\programs\\python\\python36-32\\lib\\site-packages\\twisted\\internet\\task.py',
   'PYMODULE'),
  ('twisted.internet._dumbwin32proc',
   'c:\\users\\mrzyglop\\appdata\\local\\programs\\python\\python36-32\\lib\\site-packages\\twisted\\internet\\_dumbwin32proc.py',
   'PYMODULE'),
  ('twisted.internet._baseprocess',
   'c:\\users\\mrzyglop\\appdata\\local\\programs\\python\\python36-32\\lib\\site-packages\\twisted\\internet\\_baseprocess.py',
   'PYMODULE'),
  ('twisted.internet._pollingfile',
   'c:\\users\\mrzyglop\\appdata\\local\\programs\\python\\python36-32\\lib\\site-packages\\twisted\\internet\\_pollingfile.py',
   'PYMODULE'),
  ('twisted.python.win32',
   'c:\\users\\mrzyglop\\appdata\\local\\programs\\python\\python36-32\\lib\\site-packages\\twisted\\python\\win32.py',
   'PYMODULE'),
  ('win32con',
   'c:\\users\\mrzyglop\\appdata\\local\\programs\\python\\python36-32\\lib\\site-packages\\win32\\lib\\win32con.py',
   'PYMODULE'),
  ('twisted.internet._signals',
   'c:\\users\\mrzyglop\\appdata\\local\\programs\\python\\python36-32\\lib\\site-packages\\twisted\\internet\\_signals.py',
   'PYMODULE'),
  ('twisted.internet.process',
   'c:\\users\\mrzyglop\\appdata\\local\\programs\\python\\python36-32\\lib\\site-packages\\twisted\\internet\\process.py',
   'PYMODULE'),
  ('twisted.internet.abstract',
   'c:\\users\\mrzyglop\\appdata\\local\\programs\\python\\python36-32\\lib\\site-packages\\twisted\\internet\\abstract.py',
   'PYMODULE'),
  ('pty',
   'c:\\users\\mrzyglop\\appdata\\local\\programs\\python\\python36-32\\lib\\pty.py',
   'PYMODULE'),
  ('twisted.internet.unix',
   'c:\\users\\mrzyglop\\appdata\\local\\programs\\python\\python36-32\\lib\\site-packages\\twisted\\internet\\unix.py',
   'PYMODULE'),
  ('twisted.python.filepath',
   'c:\\users\\mrzyglop\\appdata\\local\\programs\\python\\python36-32\\lib\\site-packages\\twisted\\python\\filepath.py',
   'PYMODULE'),
  ('twisted.internet.address',
   'c:\\users\\mrzyglop\\appdata\\local\\programs\\python\\python36-32\\lib\\site-packages\\twisted\\internet\\address.py',
   'PYMODULE'),
  ('twisted.internet.protocol',
   'c:\\users\\mrzyglop\\appdata\\local\\programs\\python\\python36-32\\lib\\site-packages\\twisted\\internet\\protocol.py',
   'PYMODULE'),
  ('twisted.internet.fdesc',
   'c:\\users\\mrzyglop\\appdata\\local\\programs\\python\\python36-32\\lib\\site-packages\\twisted\\internet\\fdesc.py',
   'PYMODULE'),
  ('twisted.internet.ssl',
   'c:\\users\\mrzyglop\\appdata\\local\\programs\\python\\python36-32\\lib\\site-packages\\twisted\\internet\\ssl.py',
   'PYMODULE'),
  ('twisted.internet._sslverify',
   'c:\\users\\mrzyglop\\appdata\\local\\programs\\python\\python36-32\\lib\\site-packages\\twisted\\internet\\_sslverify.py',
   'PYMODULE'),
  ('OpenSSL._util',
   'c:\\users\\mrzyglop\\appdata\\local\\programs\\python\\python36-32\\lib\\site-packages\\OpenSSL\\_util.py',
   'PYMODULE'),
  ('cryptography.hazmat.bindings.openssl.binding',
   'c:\\users\\mrzyglop\\appdata\\local\\programs\\python\\python36-32\\lib\\site-packages\\cryptography\\hazmat\\bindings\\openssl\\binding.py',
   'PYMODULE'),
  ('cryptography.hazmat.bindings.openssl',
   'c:\\users\\mrzyglop\\appdata\\local\\programs\\python\\python36-32\\lib\\site-packages\\cryptography\\hazmat\\bindings\\openssl\\__init__.py',
   'PYMODULE'),
  ('cryptography.hazmat.bindings',
   'c:\\users\\mrzyglop\\appdata\\local\\programs\\python\\python36-32\\lib\\site-packages\\cryptography\\hazmat\\bindings\\__init__.py',
   'PYMODULE'),
  ('cryptography.hazmat',
   'c:\\users\\mrzyglop\\appdata\\local\\programs\\python\\python36-32\\lib\\site-packages\\cryptography\\hazmat\\__init__.py',
   'PYMODULE'),
  ('cryptography.hazmat.bindings.openssl._conditional',
   'c:\\users\\mrzyglop\\appdata\\local\\programs\\python\\python36-32\\lib\\site-packages\\cryptography\\hazmat\\bindings\\openssl\\_conditional.py',
   'PYMODULE'),
  ('cryptography.exceptions',
   'c:\\users\\mrzyglop\\appdata\\local\\programs\\python\\python36-32\\lib\\site-packages\\cryptography\\exceptions.py',
   'PYMODULE'),
  ('cryptography.utils',
   'c:\\users\\mrzyglop\\appdata\\local\\programs\\python\\python36-32\\lib\\site-packages\\cryptography\\utils.py',
   'PYMODULE'),
  ('cryptography',
   'c:\\users\\mrzyglop\\appdata\\local\\programs\\python\\python36-32\\lib\\site-packages\\cryptography\\__init__.py',
   'PYMODULE'),
  ('cryptography.hazmat.backends.openssl.dh',
   'c:\\users\\mrzyglop\\appdata\\local\\programs\\python\\python36-32\\lib\\site-packages\\cryptography\\hazmat\\backends\\openssl\\dh.py',
   'PYMODULE'),
  ('cryptography.hazmat.primitives.asymmetric.dh',
   'c:\\users\\mrzyglop\\appdata\\local\\programs\\python\\python36-32\\lib\\site-packages\\cryptography\\hazmat\\primitives\\asymmetric\\dh.py',
   'PYMODULE'),
  ('cryptography.hazmat.primitives.asymmetric',
   'c:\\users\\mrzyglop\\appdata\\local\\programs\\python\\python36-32\\lib\\site-packages\\cryptography\\hazmat\\primitives\\asymmetric\\__init__.py',
   'PYMODULE'),
  ('cryptography.hazmat.primitives.asymmetric.rsa',
   'c:\\users\\mrzyglop\\appdata\\local\\programs\\python\\python36-32\\lib\\site-packages\\cryptography\\hazmat\\primitives\\asymmetric\\rsa.py',
   'PYMODULE'),
  ('fractions',
   'c:\\users\\mrzyglop\\appdata\\local\\programs\\python\\python36-32\\lib\\fractions.py',
   'PYMODULE'),
  ('cryptography.hazmat.primitives.asymmetric.ec',
   'c:\\users\\mrzyglop\\appdata\\local\\programs\\python\\python36-32\\lib\\site-packages\\cryptography\\hazmat\\primitives\\asymmetric\\ec.py',
   'PYMODULE'),
  ('cryptography.hazmat.primitives.asymmetric.dsa',
   'c:\\users\\mrzyglop\\appdata\\local\\programs\\python\\python36-32\\lib\\site-packages\\cryptography\\hazmat\\primitives\\asymmetric\\dsa.py',
   'PYMODULE'),
  ('cryptography.hazmat.primitives.serialization',
   'c:\\users\\mrzyglop\\appdata\\local\\programs\\python\\python36-32\\lib\\site-packages\\cryptography\\hazmat\\primitives\\serialization.py',
   'PYMODULE'),
  ('cryptography.hazmat.primitives',
   'c:\\users\\mrzyglop\\appdata\\local\\programs\\python\\python36-32\\lib\\site-packages\\cryptography\\hazmat\\primitives\\__init__.py',
   'PYMODULE'),
  ('cryptography.hazmat.primitives.hashes',
   'c:\\users\\mrzyglop\\appdata\\local\\programs\\python\\python36-32\\lib\\site-packages\\cryptography\\hazmat\\primitives\\hashes.py',
   'PYMODULE'),
  ('cryptography.hazmat.primitives.mac',
   'c:\\users\\mrzyglop\\appdata\\local\\programs\\python\\python36-32\\lib\\site-packages\\cryptography\\hazmat\\primitives\\mac.py',
   'PYMODULE'),
  ('cryptography.hazmat.primitives.constant_time',
   'c:\\users\\mrzyglop\\appdata\\local\\programs\\python\\python36-32\\lib\\site-packages\\cryptography\\hazmat\\primitives\\constant_time.py',
   'PYMODULE'),
  ('cryptography.hazmat.backends',
   'c:\\users\\mrzyglop\\appdata\\local\\programs\\python\\python36-32\\lib\\site-packages\\cryptography\\hazmat\\backends\\__init__.py',
   'PYMODULE'),
  ('cryptography.hazmat.backends.openssl.ec',
   'c:\\users\\mrzyglop\\appdata\\local\\programs\\python\\python36-32\\lib\\site-packages\\cryptography\\hazmat\\backends\\openssl\\ec.py',
   'PYMODULE'),
  ('cryptography.hazmat.backends.openssl.hashes',
   'c:\\users\\mrzyglop\\appdata\\local\\programs\\python\\python36-32\\lib\\site-packages\\cryptography\\hazmat\\backends\\openssl\\hashes.py',
   'PYMODULE'),
  ('cryptography.hazmat.backends.openssl.encode_asn1',
   'c:\\users\\mrzyglop\\appdata\\local\\programs\\python\\python36-32\\lib\\site-packages\\cryptography\\hazmat\\backends\\openssl\\encode_asn1.py',
   'PYMODULE'),
  ('cryptography.x509.oid',
   'c:\\users\\mrzyglop\\appdata\\local\\programs\\python\\python36-32\\lib\\site-packages\\cryptography\\x509\\oid.py',
   'PYMODULE'),
  ('cryptography.hazmat.backends.openssl.backend',
   'c:\\users\\mrzyglop\\appdata\\local\\programs\\python\\python36-32\\lib\\site-packages\\cryptography\\hazmat\\backends\\openssl\\backend.py',
   'PYMODULE'),
  ('cryptography.hazmat.primitives.kdf.scrypt',
   'c:\\users\\mrzyglop\\appdata\\local\\programs\\python\\python36-32\\lib\\site-packages\\cryptography\\hazmat\\primitives\\kdf\\scrypt.py',
   'PYMODULE'),
  ('cryptography.hazmat.primitives.kdf',
   'c:\\users\\mrzyglop\\appdata\\local\\programs\\python\\python36-32\\lib\\site-packages\\cryptography\\hazmat\\primitives\\kdf\\__init__.py',
   'PYMODULE'),
  ('cryptography.hazmat.primitives.ciphers.modes',
   'c:\\users\\mrzyglop\\appdata\\local\\programs\\python\\python36-32\\lib\\site-packages\\cryptography\\hazmat\\primitives\\ciphers\\modes.py',
   'PYMODULE'),
  ('cryptography.hazmat.primitives.ciphers',
   'c:\\users\\mrzyglop\\appdata\\local\\programs\\python\\python36-32\\lib\\site-packages\\cryptography\\hazmat\\primitives\\ciphers\\__init__.py',
   'PYMODULE'),
  ('cryptography.hazmat.primitives.ciphers.base',
   'c:\\users\\mrzyglop\\appdata\\local\\programs\\python\\python36-32\\lib\\site-packages\\cryptography\\hazmat\\primitives\\ciphers\\base.py',
   'PYMODULE'),
  ('cryptography.hazmat.primitives.ciphers.algorithms',
   'c:\\users\\mrzyglop\\appdata\\local\\programs\\python\\python36-32\\lib\\site-packages\\cryptography\\hazmat\\primitives\\ciphers\\algorithms.py',
   'PYMODULE'),
  ('cryptography.hazmat.primitives.asymmetric.padding',
   'c:\\users\\mrzyglop\\appdata\\local\\programs\\python\\python36-32\\lib\\site-packages\\cryptography\\hazmat\\primitives\\asymmetric\\padding.py',
   'PYMODULE'),
  ('cryptography.hazmat.backends.openssl.decode_asn1',
   'c:\\users\\mrzyglop\\appdata\\local\\programs\\python\\python36-32\\lib\\site-packages\\cryptography\\hazmat\\backends\\openssl\\decode_asn1.py',
   'PYMODULE'),
  ('cryptography.x509.name',
   'c:\\users\\mrzyglop\\appdata\\local\\programs\\python\\python36-32\\lib\\site-packages\\cryptography\\x509\\name.py',
   'PYMODULE'),
  ('cryptography.x509.extensions',
   'c:\\users\\mrzyglop\\appdata\\local\\programs\\python\\python36-32\\lib\\site-packages\\cryptography\\x509\\extensions.py',
   'PYMODULE'),
  ('cryptography.x509.general_name',
   'c:\\users\\mrzyglop\\appdata\\local\\programs\\python\\python36-32\\lib\\site-packages\\cryptography\\x509\\general_name.py',
   'PYMODULE'),
  ('idna',
   'c:\\users\\mrzyglop\\appdata\\local\\programs\\python\\python36-32\\lib\\site-packages\\idna\\__init__.py',
   'PYMODULE'),
  ('idna.core',
   'c:\\users\\mrzyglop\\appdata\\local\\programs\\python\\python36-32\\lib\\site-packages\\idna\\core.py',
   'PYMODULE'),
  ('idna.uts46data',
   'c:\\users\\mrzyglop\\appdata\\local\\programs\\python\\python36-32\\lib\\site-packages\\idna\\uts46data.py',
   'PYMODULE'),
  ('idna.intranges',
   'c:\\users\\mrzyglop\\appdata\\local\\programs\\python\\python36-32\\lib\\site-packages\\idna\\intranges.py',
   'PYMODULE'),
  ('idna.idnadata',
   'c:\\users\\mrzyglop\\appdata\\local\\programs\\python\\python36-32\\lib\\site-packages\\idna\\idnadata.py',
   'PYMODULE'),
  ('idna.package_data',
   'c:\\users\\mrzyglop\\appdata\\local\\programs\\python\\python36-32\\lib\\site-packages\\idna\\package_data.py',
   'PYMODULE'),
  ('cryptography.x509.certificate_transparency',
   'c:\\users\\mrzyglop\\appdata\\local\\programs\\python\\python36-32\\lib\\site-packages\\cryptography\\x509\\certificate_transparency.py',
   'PYMODULE'),
  ('asn1crypto.keys',
   'c:\\users\\mrzyglop\\appdata\\local\\programs\\python\\python36-32\\lib\\site-packages\\asn1crypto\\keys.py',
   'PYMODULE'),
  ('asn1crypto',
   'c:\\users\\mrzyglop\\appdata\\local\\programs\\python\\python36-32\\lib\\site-packages\\asn1crypto\\__init__.py',
   'PYMODULE'),
  ('asn1crypto._teletex_codec',
   'c:\\users\\mrzyglop\\appdata\\local\\programs\\python\\python36-32\\lib\\site-packages\\asn1crypto\\_teletex_codec.py',
   'PYMODULE'),
  ('asn1crypto.version',
   'c:\\users\\mrzyglop\\appdata\\local\\programs\\python\\python36-32\\lib\\site-packages\\asn1crypto\\version.py',
   'PYMODULE'),
  ('asn1crypto.util',
   'c:\\users\\mrzyglop\\appdata\\local\\programs\\python\\python36-32\\lib\\site-packages\\asn1crypto\\util.py',
   'PYMODULE'),
  ('asn1crypto._inet',
   'c:\\users\\mrzyglop\\appdata\\local\\programs\\python\\python36-32\\lib\\site-packages\\asn1crypto\\_inet.py',
   'PYMODULE'),
  ('asn1crypto._ordereddict',
   'c:\\users\\mrzyglop\\appdata\\local\\programs\\python\\python36-32\\lib\\site-packages\\asn1crypto\\_ordereddict.py',
   'PYMODULE'),
  ('asn1crypto._iri',
   'c:\\users\\mrzyglop\\appdata\\local\\programs\\python\\python36-32\\lib\\site-packages\\asn1crypto\\_iri.py',
   'PYMODULE'),
  ('asn1crypto.algos',
   'c:\\users\\mrzyglop\\appdata\\local\\programs\\python\\python36-32\\lib\\site-packages\\asn1crypto\\algos.py',
   'PYMODULE'),
  ('asn1crypto._int',
   'c:\\users\\mrzyglop\\appdata\\local\\programs\\python\\python36-32\\lib\\site-packages\\asn1crypto\\_int.py',
   'PYMODULE'),
  ('asn1crypto._perf._big_num_ctypes',
   'c:\\users\\mrzyglop\\appdata\\local\\programs\\python\\python36-32\\lib\\site-packages\\asn1crypto\\_perf\\_big_num_ctypes.py',
   'PYMODULE'),
  ('asn1crypto._perf',
   'c:\\users\\mrzyglop\\appdata\\local\\programs\\python\\python36-32\\lib\\site-packages\\asn1crypto\\_perf\\__init__.py',
   'PYMODULE'),
  ('asn1crypto._ffi',
   'c:\\users\\mrzyglop\\appdata\\local\\programs\\python\\python36-32\\lib\\site-packages\\asn1crypto\\_ffi.py',
   'PYMODULE'),
  ('asn1crypto._types',
   'c:\\users\\mrzyglop\\appdata\\local\\programs\\python\\python36-32\\lib\\site-packages\\asn1crypto\\_types.py',
   'PYMODULE'),
  ('asn1crypto._errors',
   'c:\\users\\mrzyglop\\appdata\\local\\programs\\python\\python36-32\\lib\\site-packages\\asn1crypto\\_errors.py',
   'PYMODULE'),
  ('asn1crypto._elliptic_curve',
   'c:\\users\\mrzyglop\\appdata\\local\\programs\\python\\python36-32\\lib\\site-packages\\asn1crypto\\_elliptic_curve.py',
   'PYMODULE'),
  ('asn1crypto.core',
   'c:\\users\\mrzyglop\\appdata\\local\\programs\\python\\python36-32\\lib\\site-packages\\asn1crypto\\core.py',
   'PYMODULE'),
  ('asn1crypto.parser',
   'c:\\users\\mrzyglop\\appdata\\local\\programs\\python\\python36-32\\lib\\site-packages\\asn1crypto\\parser.py',
   'PYMODULE'),
  ('cryptography.hazmat.backends.openssl.x509',
   'c:\\users\\mrzyglop\\appdata\\local\\programs\\python\\python36-32\\lib\\site-packages\\cryptography\\hazmat\\backends\\openssl\\x509.py',
   'PYMODULE'),
  ('cryptography.hazmat.backends.openssl.rsa',
   'c:\\users\\mrzyglop\\appdata\\local\\programs\\python\\python36-32\\lib\\site-packages\\cryptography\\hazmat\\backends\\openssl\\rsa.py',
   'PYMODULE'),
  ('cryptography.hazmat.backends.openssl.aead',
   'c:\\users\\mrzyglop\\appdata\\local\\programs\\python\\python36-32\\lib\\site-packages\\cryptography\\hazmat\\backends\\openssl\\aead.py',
   'PYMODULE'),
  ('cryptography.hazmat.primitives.ciphers.aead',
   'c:\\users\\mrzyglop\\appdata\\local\\programs\\python\\python36-32\\lib\\site-packages\\cryptography\\hazmat\\primitives\\ciphers\\aead.py',
   'PYMODULE'),
  ('cryptography.hazmat.backends.openssl.utils',
   'c:\\users\\mrzyglop\\appdata\\local\\programs\\python\\python36-32\\lib\\site-packages\\cryptography\\hazmat\\backends\\openssl\\utils.py',
   'PYMODULE'),
  ('cryptography.hazmat.primitives.asymmetric.utils',
   'c:\\users\\mrzyglop\\appdata\\local\\programs\\python\\python36-32\\lib\\site-packages\\cryptography\\hazmat\\primitives\\asymmetric\\utils.py',
   'PYMODULE'),
  ('cryptography.hazmat.backends.openssl.x25519',
   'c:\\users\\mrzyglop\\appdata\\local\\programs\\python\\python36-32\\lib\\site-packages\\cryptography\\hazmat\\backends\\openssl\\x25519.py',
   'PYMODULE'),
  ('cryptography.hazmat.primitives.asymmetric.x25519',
   'c:\\users\\mrzyglop\\appdata\\local\\programs\\python\\python36-32\\lib\\site-packages\\cryptography\\hazmat\\primitives\\asymmetric\\x25519.py',
   'PYMODULE'),
  ('cryptography.hazmat.backends.openssl.cmac',
   'c:\\users\\mrzyglop\\appdata\\local\\programs\\python\\python36-32\\lib\\site-packages\\cryptography\\hazmat\\backends\\openssl\\cmac.py',
   'PYMODULE'),
  ('cryptography.hazmat.backends.openssl.dsa',
   'c:\\users\\mrzyglop\\appdata\\local\\programs\\python\\python36-32\\lib\\site-packages\\cryptography\\hazmat\\backends\\openssl\\dsa.py',
   'PYMODULE'),
  ('cryptography.hazmat.backends.interfaces',
   'c:\\users\\mrzyglop\\appdata\\local\\programs\\python\\python36-32\\lib\\site-packages\\cryptography\\hazmat\\backends\\interfaces.py',
   'PYMODULE'),
  ('cryptography.hazmat.backends.openssl.hmac',
   'c:\\users\\mrzyglop\\appdata\\local\\programs\\python\\python36-32\\lib\\site-packages\\cryptography\\hazmat\\backends\\openssl\\hmac.py',
   'PYMODULE'),
  ('cryptography.hazmat.backends.openssl',
   'c:\\users\\mrzyglop\\appdata\\local\\programs\\python\\python36-32\\lib\\site-packages\\cryptography\\hazmat\\backends\\openssl\\__init__.py',
   'PYMODULE'),
  ('cryptography.hazmat.backends.openssl.ciphers',
   'c:\\users\\mrzyglop\\appdata\\local\\programs\\python\\python36-32\\lib\\site-packages\\cryptography\\hazmat\\backends\\openssl\\ciphers.py',
   'PYMODULE'),
  ('cryptography.x509',
   'c:\\users\\mrzyglop\\appdata\\local\\programs\\python\\python36-32\\lib\\site-packages\\cryptography\\x509\\__init__.py',
   'PYMODULE'),
  ('cryptography.x509.base',
   'c:\\users\\mrzyglop\\appdata\\local\\programs\\python\\python36-32\\lib\\site-packages\\cryptography\\x509\\base.py',
   'PYMODULE'),
  ('cryptography.__about__',
   'c:\\users\\mrzyglop\\appdata\\local\\programs\\python\\python36-32\\lib\\site-packages\\cryptography\\__about__.py',
   'PYMODULE'),
  ('six',
   'c:\\users\\mrzyglop\\appdata\\local\\programs\\python\\python36-32\\lib\\site-packages\\six.py',
   'PYMODULE'),
  ('service_identity.pyopenssl',
   'c:\\users\\mrzyglop\\appdata\\local\\programs\\python\\python36-32\\lib\\site-packages\\service_identity\\pyopenssl.py',
   'PYMODULE'),
  ('service_identity._common',
   'c:\\users\\mrzyglop\\appdata\\local\\programs\\python\\python36-32\\lib\\site-packages\\service_identity\\_common.py',
   'PYMODULE'),
  ('service_identity._compat',
   'c:\\users\\mrzyglop\\appdata\\local\\programs\\python\\python36-32\\lib\\site-packages\\service_identity\\_compat.py',
   'PYMODULE'),
  ('attr',
   'c:\\users\\mrzyglop\\appdata\\local\\programs\\python\\python36-32\\lib\\site-packages\\attr\\__init__.py',
   'PYMODULE'),
  ('attr.validators',
   'c:\\users\\mrzyglop\\appdata\\local\\programs\\python\\python36-32\\lib\\site-packages\\attr\\validators.py',
   'PYMODULE'),
  ('attr.converters',
   'c:\\users\\mrzyglop\\appdata\\local\\programs\\python\\python36-32\\lib\\site-packages\\attr\\converters.py',
   'PYMODULE'),
  ('attr.filters',
   'c:\\users\\mrzyglop\\appdata\\local\\programs\\python\\python36-32\\lib\\site-packages\\attr\\filters.py',
   'PYMODULE'),
  ('attr._compat',
   'c:\\users\\mrzyglop\\appdata\\local\\programs\\python\\python36-32\\lib\\site-packages\\attr\\_compat.py',
   'PYMODULE'),
  ('attr.exceptions',
   'c:\\users\\mrzyglop\\appdata\\local\\programs\\python\\python36-32\\lib\\site-packages\\attr\\exceptions.py',
   'PYMODULE'),
  ('attr._make',
   'c:\\users\\mrzyglop\\appdata\\local\\programs\\python\\python36-32\\lib\\site-packages\\attr\\_make.py',
   'PYMODULE'),
  ('attr._funcs',
   'c:\\users\\mrzyglop\\appdata\\local\\programs\\python\\python36-32\\lib\\site-packages\\attr\\_funcs.py',
   'PYMODULE'),
  ('attr._config',
   'c:\\users\\mrzyglop\\appdata\\local\\programs\\python\\python36-32\\lib\\site-packages\\attr\\_config.py',
   'PYMODULE'),
  ('service_identity.exceptions',
   'c:\\users\\mrzyglop\\appdata\\local\\programs\\python\\python36-32\\lib\\site-packages\\service_identity\\exceptions.py',
   'PYMODULE'),
  ('pyasn1_modules.rfc2459',
   'c:\\users\\mrzyglop\\appdata\\local\\programs\\python\\python36-32\\lib\\site-packages\\pyasn1_modules\\rfc2459.py',
   'PYMODULE'),
  ('pyasn1_modules',
   'c:\\users\\mrzyglop\\appdata\\local\\programs\\python\\python36-32\\lib\\site-packages\\pyasn1_modules\\__init__.py',
   'PYMODULE'),
  ('pyasn1.type.useful',
   'c:\\users\\mrzyglop\\appdata\\local\\programs\\python\\python36-32\\lib\\site-packages\\pyasn1\\type\\useful.py',
   'PYMODULE'),
  ('pyasn1.compat.string',
   'c:\\users\\mrzyglop\\appdata\\local\\programs\\python\\python36-32\\lib\\site-packages\\pyasn1\\compat\\string.py',
   'PYMODULE'),
  ('pyasn1.compat.dateandtime',
   'c:\\users\\mrzyglop\\appdata\\local\\programs\\python\\python36-32\\lib\\site-packages\\pyasn1\\compat\\dateandtime.py',
   'PYMODULE'),
  ('pyasn1.compat',
   'c:\\users\\mrzyglop\\appdata\\local\\programs\\python\\python36-32\\lib\\site-packages\\pyasn1\\compat\\__init__.py',
   'PYMODULE'),
  ('pyasn1.compat.binary',
   'c:\\users\\mrzyglop\\appdata\\local\\programs\\python\\python36-32\\lib\\site-packages\\pyasn1\\compat\\binary.py',
   'PYMODULE'),
  ('pyasn1.compat.calling',
   'c:\\users\\mrzyglop\\appdata\\local\\programs\\python\\python36-32\\lib\\site-packages\\pyasn1\\compat\\calling.py',
   'PYMODULE'),
  ('pyasn1.error',
   'c:\\users\\mrzyglop\\appdata\\local\\programs\\python\\python36-32\\lib\\site-packages\\pyasn1\\error.py',
   'PYMODULE'),
  ('pyasn1',
   'c:\\users\\mrzyglop\\appdata\\local\\programs\\python\\python36-32\\lib\\site-packages\\pyasn1\\__init__.py',
   'PYMODULE'),
  ('pyasn1.debug',
   'c:\\users\\mrzyglop\\appdata\\local\\programs\\python\\python36-32\\lib\\site-packages\\pyasn1\\debug.py',
   'PYMODULE'),
  ('pyasn1.compat.octets',
   'c:\\users\\mrzyglop\\appdata\\local\\programs\\python\\python36-32\\lib\\site-packages\\pyasn1\\compat\\octets.py',
   'PYMODULE'),
  ('pyasn1.type.tag',
   'c:\\users\\mrzyglop\\appdata\\local\\programs\\python\\python36-32\\lib\\site-packages\\pyasn1\\type\\tag.py',
   'PYMODULE'),
  ('pyasn1.type.opentype',
   'c:\\users\\mrzyglop\\appdata\\local\\programs\\python\\python36-32\\lib\\site-packages\\pyasn1\\type\\opentype.py',
   'PYMODULE'),
  ('pyasn1.type.namedval',
   'c:\\users\\mrzyglop\\appdata\\local\\programs\\python\\python36-32\\lib\\site-packages\\pyasn1\\type\\namedval.py',
   'PYMODULE'),
  ('pyasn1.type.namedtype',
   'c:\\users\\mrzyglop\\appdata\\local\\programs\\python\\python36-32\\lib\\site-packages\\pyasn1\\type\\namedtype.py',
   'PYMODULE'),
  ('pyasn1.type.tagmap',
   'c:\\users\\mrzyglop\\appdata\\local\\programs\\python\\python36-32\\lib\\site-packages\\pyasn1\\type\\tagmap.py',
   'PYMODULE'),
  ('pyasn1.type.constraint',
   'c:\\users\\mrzyglop\\appdata\\local\\programs\\python\\python36-32\\lib\\site-packages\\pyasn1\\type\\constraint.py',
   'PYMODULE'),
  ('pyasn1.type.error',
   'c:\\users\\mrzyglop\\appdata\\local\\programs\\python\\python36-32\\lib\\site-packages\\pyasn1\\type\\error.py',
   'PYMODULE'),
  ('pyasn1.type',
   'c:\\users\\mrzyglop\\appdata\\local\\programs\\python\\python36-32\\lib\\site-packages\\pyasn1\\type\\__init__.py',
   'PYMODULE'),
  ('pyasn1.type.base',
   'c:\\users\\mrzyglop\\appdata\\local\\programs\\python\\python36-32\\lib\\site-packages\\pyasn1\\type\\base.py',
   'PYMODULE'),
  ('pyasn1.type.univ',
   'c:\\users\\mrzyglop\\appdata\\local\\programs\\python\\python36-32\\lib\\site-packages\\pyasn1\\type\\univ.py',
   'PYMODULE'),
  ('pyasn1.compat.integer',
   'c:\\users\\mrzyglop\\appdata\\local\\programs\\python\\python36-32\\lib\\site-packages\\pyasn1\\compat\\integer.py',
   'PYMODULE'),
  ('pyasn1.codec.ber.eoo',
   'c:\\users\\mrzyglop\\appdata\\local\\programs\\python\\python36-32\\lib\\site-packages\\pyasn1\\codec\\ber\\eoo.py',
   'PYMODULE'),
  ('pyasn1.codec.ber',
   'c:\\users\\mrzyglop\\appdata\\local\\programs\\python\\python36-32\\lib\\site-packages\\pyasn1\\codec\\ber\\__init__.py',
   'PYMODULE'),
  ('pyasn1.codec.ber.decoder',
   'c:\\users\\mrzyglop\\appdata\\local\\programs\\python\\python36-32\\lib\\site-packages\\pyasn1\\codec\\ber\\decoder.py',
   'PYMODULE'),
  ('pyasn1.codec',
   'c:\\users\\mrzyglop\\appdata\\local\\programs\\python\\python36-32\\lib\\site-packages\\pyasn1\\codec\\__init__.py',
   'PYMODULE'),
  ('pyasn1.type.char',
   'c:\\users\\mrzyglop\\appdata\\local\\programs\\python\\python36-32\\lib\\site-packages\\pyasn1\\type\\char.py',
   'PYMODULE'),
  ('pyasn1.codec.der.decoder',
   'c:\\users\\mrzyglop\\appdata\\local\\programs\\python\\python36-32\\lib\\site-packages\\pyasn1\\codec\\der\\decoder.py',
   'PYMODULE'),
  ('pyasn1.codec.der',
   'c:\\users\\mrzyglop\\appdata\\local\\programs\\python\\python36-32\\lib\\site-packages\\pyasn1\\codec\\der\\__init__.py',
   'PYMODULE'),
  ('pyasn1.codec.cer.decoder',
   'c:\\users\\mrzyglop\\appdata\\local\\programs\\python\\python36-32\\lib\\site-packages\\pyasn1\\codec\\cer\\decoder.py',
   'PYMODULE'),
  ('pyasn1.codec.cer',
   'c:\\users\\mrzyglop\\appdata\\local\\programs\\python\\python36-32\\lib\\site-packages\\pyasn1\\codec\\cer\\__init__.py',
   'PYMODULE'),
  ('service_identity',
   'c:\\users\\mrzyglop\\appdata\\local\\programs\\python\\python36-32\\lib\\site-packages\\service_identity\\__init__.py',
   'PYMODULE'),
  ('service_identity.cryptography',
   'c:\\users\\mrzyglop\\appdata\\local\\programs\\python\\python36-32\\lib\\site-packages\\service_identity\\cryptography.py',
   'PYMODULE'),
  ('twisted.internet._idna',
   'c:\\users\\mrzyglop\\appdata\\local\\programs\\python\\python36-32\\lib\\site-packages\\twisted\\internet\\_idna.py',
   'PYMODULE'),
  ('OpenSSL.crypto',
   'c:\\users\\mrzyglop\\appdata\\local\\programs\\python\\python36-32\\lib\\site-packages\\OpenSSL\\crypto.py',
   'PYMODULE'),
  ('OpenSSL.SSL',
   'c:\\users\\mrzyglop\\appdata\\local\\programs\\python\\python36-32\\lib\\site-packages\\OpenSSL\\SSL.py',
   'PYMODULE'),
  ('OpenSSL',
   'c:\\users\\mrzyglop\\appdata\\local\\programs\\python\\python36-32\\lib\\site-packages\\OpenSSL\\__init__.py',
   'PYMODULE'),
  ('OpenSSL.version',
   'c:\\users\\mrzyglop\\appdata\\local\\programs\\python\\python36-32\\lib\\site-packages\\OpenSSL\\version.py',
   'PYMODULE'),
  ('twisted.protocols.tls',
   'c:\\users\\mrzyglop\\appdata\\local\\programs\\python\\python36-32\\lib\\site-packages\\twisted\\protocols\\tls.py',
   'PYMODULE'),
  ('twisted.protocols.policies',
   'c:\\users\\mrzyglop\\appdata\\local\\programs\\python\\python36-32\\lib\\site-packages\\twisted\\protocols\\policies.py',
   'PYMODULE'),
  ('twisted.internet._producer_helpers',
   'c:\\users\\mrzyglop\\appdata\\local\\programs\\python\\python36-32\\lib\\site-packages\\twisted\\internet\\_producer_helpers.py',
   'PYMODULE'),
  ('twisted.protocols',
   'c:\\users\\mrzyglop\\appdata\\local\\programs\\python\\python36-32\\lib\\site-packages\\twisted\\protocols\\__init__.py',
   'PYMODULE'),
  ('twisted.protocols.basic',
   'c:\\users\\mrzyglop\\appdata\\local\\programs\\python\\python36-32\\lib\\site-packages\\twisted\\protocols\\basic.py',
   'PYMODULE'),
  ('twisted.internet.base',
   'c:\\users\\mrzyglop\\appdata\\local\\programs\\python\\python36-32\\lib\\site-packages\\twisted\\internet\\base.py',
   'PYMODULE'),
  ('twisted.internet._resolver',
   'c:\\users\\mrzyglop\\appdata\\local\\programs\\python\\python36-32\\lib\\site-packages\\twisted\\internet\\_resolver.py',
   'PYMODULE'),
  ('twisted.internet.tcp',
   'c:\\users\\mrzyglop\\appdata\\local\\programs\\python\\python36-32\\lib\\site-packages\\twisted\\internet\\tcp.py',
   'PYMODULE'),
  ('twisted.internet._newtls',
   'c:\\users\\mrzyglop\\appdata\\local\\programs\\python\\python36-32\\lib\\site-packages\\twisted\\internet\\_newtls.py',
   'PYMODULE'),
  ('twisted.internet.udp',
   'c:\\users\\mrzyglop\\appdata\\local\\programs\\python\\python36-32\\lib\\site-packages\\twisted\\internet\\udp.py',
   'PYMODULE'),
  ('twisted.internet.interfaces',
   'c:\\users\\mrzyglop\\appdata\\local\\programs\\python\\python36-32\\lib\\site-packages\\twisted\\internet\\interfaces.py',
   'PYMODULE'),
  ('zope.interface',
   'c:\\users\\mrzyglop\\appdata\\local\\programs\\python\\python36-32\\lib\\site-packages\\zope\\interface\\__init__.py',
   'PYMODULE'),
  ('zope', '-', 'PYMODULE'),
  ('twisted.internet.pollreactor',
   'c:\\users\\mrzyglop\\appdata\\local\\programs\\python\\python36-32\\lib\\site-packages\\twisted\\internet\\pollreactor.py',
   'PYMODULE'),
  ('twisted.internet.epollreactor',
   'c:\\users\\mrzyglop\\appdata\\local\\programs\\python\\python36-32\\lib\\site-packages\\twisted\\internet\\epollreactor.py',
   'PYMODULE'),
  ('twisted.python.runtime',
   'c:\\users\\mrzyglop\\appdata\\local\\programs\\python\\python36-32\\lib\\site-packages\\twisted\\python\\runtime.py',
   'PYMODULE'),
  ('twisted.python._inotify',
   'c:\\users\\mrzyglop\\appdata\\local\\programs\\python\\python36-32\\lib\\site-packages\\twisted\\python\\_inotify.py',
   'PYMODULE'),
  ('ntpath',
   'c:\\users\\mrzyglop\\appdata\\local\\programs\\python\\python36-32\\lib\\ntpath.py',
   'PYMODULE'),
  ('_strptime',
   'c:\\users\\mrzyglop\\appdata\\local\\programs\\python\\python36-32\\lib\\_strptime.py',
   'PYMODULE'),
  ('datetime',
   'c:\\users\\mrzyglop\\appdata\\local\\programs\\python\\python36-32\\lib\\datetime.py',
   'PYMODULE'),
  ('stringprep',
   'c:\\users\\mrzyglop\\appdata\\local\\programs\\python\\python36-32\\lib\\stringprep.py',
   'PYMODULE'),
  ('fnmatch',
   'c:\\users\\mrzyglop\\appdata\\local\\programs\\python\\python36-32\\lib\\fnmatch.py',
   'PYMODULE'),
  ('struct',
   'c:\\users\\mrzyglop\\appdata\\local\\programs\\python\\python36-32\\lib\\struct.py',
   'PYMODULE'),
  ('_compat_pickle',
   'c:\\users\\mrzyglop\\appdata\\local\\programs\\python\\python36-32\\lib\\_compat_pickle.py',
   'PYMODULE'),
  ('__future__',
   'c:\\users\\mrzyglop\\appdata\\local\\programs\\python\\python36-32\\lib\\__future__.py',
   'PYMODULE'),
  ('difflib',
   'c:\\users\\mrzyglop\\appdata\\local\\programs\\python\\python36-32\\lib\\difflib.py',
   'PYMODULE'),
  ('ast',
   'c:\\users\\mrzyglop\\appdata\\local\\programs\\python\\python36-32\\lib\\ast.py',
   'PYMODULE'),
  ('inspect',
   'c:\\users\\mrzyglop\\appdata\\local\\programs\\python\\python36-32\\lib\\inspect.py',
   'PYMODULE'),
  ('cmd',
   'c:\\users\\mrzyglop\\appdata\\local\\programs\\python\\python36-32\\lib\\cmd.py',
   'PYMODULE'),
  ('bdb',
   'c:\\users\\mrzyglop\\appdata\\local\\programs\\python\\python36-32\\lib\\bdb.py',
   'PYMODULE'),
  ('opcode',
   'c:\\users\\mrzyglop\\appdata\\local\\programs\\python\\python36-32\\lib\\opcode.py',
   'PYMODULE'),
  ('dis',
   'c:\\users\\mrzyglop\\appdata\\local\\programs\\python\\python36-32\\lib\\dis.py',
   'PYMODULE'),
  ('codeop',
   'c:\\users\\mrzyglop\\appdata\\local\\programs\\python\\python36-32\\lib\\codeop.py',
   'PYMODULE'),
  ('code',
   'c:\\users\\mrzyglop\\appdata\\local\\programs\\python\\python36-32\\lib\\code.py',
   'PYMODULE'),
  ('glob',
   'c:\\users\\mrzyglop\\appdata\\local\\programs\\python\\python36-32\\lib\\glob.py',
   'PYMODULE'),
  ('shlex',
   'c:\\users\\mrzyglop\\appdata\\local\\programs\\python\\python36-32\\lib\\shlex.py',
   'PYMODULE'),
  ('importlib._bootstrap',
   'c:\\users\\mrzyglop\\appdata\\local\\programs\\python\\python36-32\\lib\\importlib\\_bootstrap.py',
   'PYMODULE'),
  ('importlib._bootstrap_external',
   'c:\\users\\mrzyglop\\appdata\\local\\programs\\python\\python36-32\\lib\\importlib\\_bootstrap_external.py',
   'PYMODULE'),
  ('importlib.machinery',
   'c:\\users\\mrzyglop\\appdata\\local\\programs\\python\\python36-32\\lib\\importlib\\machinery.py',
   'PYMODULE'),
  ('importlib.util',
   'c:\\users\\mrzyglop\\appdata\\local\\programs\\python\\python36-32\\lib\\importlib\\util.py',
   'PYMODULE'),
  ('importlib.abc',
   'c:\\users\\mrzyglop\\appdata\\local\\programs\\python\\python36-32\\lib\\importlib\\abc.py',
   'PYMODULE'),
  ('importlib',
   'c:\\users\\mrzyglop\\appdata\\local\\programs\\python\\python36-32\\lib\\importlib\\__init__.py',
   'PYMODULE'),
  ('pkgutil',
   'c:\\users\\mrzyglop\\appdata\\local\\programs\\python\\python36-32\\lib\\pkgutil.py',
   'PYMODULE'),
  ('xml',
   'c:\\users\\mrzyglop\\appdata\\local\\programs\\python\\python36-32\\lib\\xml\\__init__.py',
   'PYMODULE'),
  ('xml.sax.expatreader',
   'c:\\users\\mrzyglop\\appdata\\local\\programs\\python\\python36-32\\lib\\xml\\sax\\expatreader.py',
   'PYMODULE'),
  ('xml.sax.saxutils',
   'c:\\users\\mrzyglop\\appdata\\local\\programs\\python\\python36-32\\lib\\xml\\sax\\saxutils.py',
   'PYMODULE'),
  ('xml.sax',
   'c:\\users\\mrzyglop\\appdata\\local\\programs\\python\\python36-32\\lib\\xml\\sax\\__init__.py',
   'PYMODULE'),
  ('xml.sax.handler',
   'c:\\users\\mrzyglop\\appdata\\local\\programs\\python\\python36-32\\lib\\xml\\sax\\handler.py',
   'PYMODULE'),
  ('xml.sax._exceptions',
   'c:\\users\\mrzyglop\\appdata\\local\\programs\\python\\python36-32\\lib\\xml\\sax\\_exceptions.py',
   'PYMODULE'),
  ('xml.sax.xmlreader',
   'c:\\users\\mrzyglop\\appdata\\local\\programs\\python\\python36-32\\lib\\xml\\sax\\xmlreader.py',
   'PYMODULE'),
  ('xml.parsers',
   'c:\\users\\mrzyglop\\appdata\\local\\programs\\python\\python36-32\\lib\\xml\\parsers\\__init__.py',
   'PYMODULE'),
  ('xml.parsers.expat',
   'c:\\users\\mrzyglop\\appdata\\local\\programs\\python\\python36-32\\lib\\xml\\parsers\\expat.py',
   'PYMODULE'),
  ('plistlib',
   'c:\\users\\mrzyglop\\appdata\\local\\programs\\python\\python36-32\\lib\\plistlib.py',
   'PYMODULE'),
  ('platform',
   'c:\\users\\mrzyglop\\appdata\\local\\programs\\python\\python36-32\\lib\\platform.py',
   'PYMODULE'),
  ('token',
   'c:\\users\\mrzyglop\\appdata\\local\\programs\\python\\python36-32\\lib\\token.py',
   'PYMODULE'),
  ('tokenize',
   'c:\\users\\mrzyglop\\appdata\\local\\programs\\python\\python36-32\\lib\\tokenize.py',
   'PYMODULE'),
  ('urllib.parse',
   'c:\\users\\mrzyglop\\appdata\\local\\programs\\python\\python36-32\\lib\\urllib\\parse.py',
   'PYMODULE'),
  ('tempfile',
   'c:\\users\\mrzyglop\\appdata\\local\\programs\\python\\python36-32\\lib\\tempfile.py',
   'PYMODULE'),
  ('tty',
   'c:\\users\\mrzyglop\\appdata\\local\\programs\\python\\python36-32\\lib\\tty.py',
   'PYMODULE'),
  ('pydoc_data',
   'c:\\users\\mrzyglop\\appdata\\local\\programs\\python\\python36-32\\lib\\pydoc_data\\__init__.py',
   'PYMODULE'),
  ('pydoc_data.topics',
   'c:\\users\\mrzyglop\\appdata\\local\\programs\\python\\python36-32\\lib\\pydoc_data\\topics.py',
   'PYMODULE'),
  ('html.entities',
   'c:\\users\\mrzyglop\\appdata\\local\\programs\\python\\python36-32\\lib\\html\\entities.py',
   'PYMODULE'),
  ('html',
   'c:\\users\\mrzyglop\\appdata\\local\\programs\\python\\python36-32\\lib\\html\\__init__.py',
   'PYMODULE'),
  ('ipaddress',
   'c:\\users\\mrzyglop\\appdata\\local\\programs\\python\\python36-32\\lib\\ipaddress.py',
   'PYMODULE'),
  ('ssl',
   'c:\\users\\mrzyglop\\appdata\\local\\programs\\python\\python36-32\\lib\\ssl.py',
   'PYMODULE'),
  ('http.client',
   'c:\\users\\mrzyglop\\appdata\\local\\programs\\python\\python36-32\\lib\\http\\client.py',
   'PYMODULE'),
  ('mimetypes',
   'c:\\users\\mrzyglop\\appdata\\local\\programs\\python\\python36-32\\lib\\mimetypes.py',
   'PYMODULE'),
  ('socketserver',
   'c:\\users\\mrzyglop\\appdata\\local\\programs\\python\\python36-32\\lib\\socketserver.py',
   'PYMODULE'),
  ('http',
   'c:\\users\\mrzyglop\\appdata\\local\\programs\\python\\python36-32\\lib\\http\\__init__.py',
   'PYMODULE'),
  ('http.server',
   'c:\\users\\mrzyglop\\appdata\\local\\programs\\python\\python36-32\\lib\\http\\server.py',
   'PYMODULE'),
  ('optparse',
   'c:\\users\\mrzyglop\\appdata\\local\\programs\\python\\python36-32\\lib\\optparse.py',
   'PYMODULE'),
  ('uu',
   'c:\\users\\mrzyglop\\appdata\\local\\programs\\python\\python36-32\\lib\\uu.py',
   'PYMODULE'),
  ('quopri',
   'c:\\users\\mrzyglop\\appdata\\local\\programs\\python\\python36-32\\lib\\quopri.py',
   'PYMODULE'),
  ('email.feedparser',
   'c:\\users\\mrzyglop\\appdata\\local\\programs\\python\\python36-32\\lib\\email\\feedparser.py',
   'PYMODULE'),
  ('email.parser',
   'c:\\users\\mrzyglop\\appdata\\local\\programs\\python\\python36-32\\lib\\email\\parser.py',
   'PYMODULE'),
  ('email',
   'c:\\users\\mrzyglop\\appdata\\local\\programs\\python\\python36-32\\lib\\email\\__init__.py',
   'PYMODULE'),
  ('calendar',
   'c:\\users\\mrzyglop\\appdata\\local\\programs\\python\\python36-32\\lib\\calendar.py',
   'PYMODULE'),
  ('email._parseaddr',
   'c:\\users\\mrzyglop\\appdata\\local\\programs\\python\\python36-32\\lib\\email\\_parseaddr.py',
   'PYMODULE'),
  ('email.utils',
   'c:\\users\\mrzyglop\\appdata\\local\\programs\\python\\python36-32\\lib\\email\\utils.py',
   'PYMODULE'),
  ('email.errors',
   'c:\\users\\mrzyglop\\appdata\\local\\programs\\python\\python36-32\\lib\\email\\errors.py',
   'PYMODULE'),
  ('email.header',
   'c:\\users\\mrzyglop\\appdata\\local\\programs\\python\\python36-32\\lib\\email\\header.py',
   'PYMODULE'),
  ('email._policybase',
   'c:\\users\\mrzyglop\\appdata\\local\\programs\\python\\python36-32\\lib\\email\\_policybase.py',
   'PYMODULE'),
  ('email.base64mime',
   'c:\\users\\mrzyglop\\appdata\\local\\programs\\python\\python36-32\\lib\\email\\base64mime.py',
   'PYMODULE'),
  ('email.encoders',
   'c:\\users\\mrzyglop\\appdata\\local\\programs\\python\\python36-32\\lib\\email\\encoders.py',
   'PYMODULE'),
  ('email.charset',
   'c:\\users\\mrzyglop\\appdata\\local\\programs\\python\\python36-32\\lib\\email\\charset.py',
   'PYMODULE'),
  ('base64',
   'c:\\users\\mrzyglop\\appdata\\local\\programs\\python\\python36-32\\lib\\base64.py',
   'PYMODULE'),
  ('email._encoded_words',
   'c:\\users\\mrzyglop\\appdata\\local\\programs\\python\\python36-32\\lib\\email\\_encoded_words.py',
   'PYMODULE'),
  ('hashlib',
   'c:\\users\\mrzyglop\\appdata\\local\\programs\\python\\python36-32\\lib\\hashlib.py',
   'PYMODULE'),
  ('bisect',
   'c:\\users\\mrzyglop\\appdata\\local\\programs\\python\\python36-32\\lib\\bisect.py',
   'PYMODULE'),
  ('random',
   'c:\\users\\mrzyglop\\appdata\\local\\programs\\python\\python36-32\\lib\\random.py',
   'PYMODULE'),
  ('email.generator',
   'c:\\users\\mrzyglop\\appdata\\local\\programs\\python\\python36-32\\lib\\email\\generator.py',
   'PYMODULE'),
  ('email.iterators',
   'c:\\users\\mrzyglop\\appdata\\local\\programs\\python\\python36-32\\lib\\email\\iterators.py',
   'PYMODULE'),
  ('urllib',
   'c:\\users\\mrzyglop\\appdata\\local\\programs\\python\\python36-32\\lib\\urllib\\__init__.py',
   'PYMODULE'),
  ('email._header_value_parser',
   'c:\\users\\mrzyglop\\appdata\\local\\programs\\python\\python36-32\\lib\\email\\_header_value_parser.py',
   'PYMODULE'),
  ('email.headerregistry',
   'c:\\users\\mrzyglop\\appdata\\local\\programs\\python\\python36-32\\lib\\email\\headerregistry.py',
   'PYMODULE'),
  ('email.quoprimime',
   'c:\\users\\mrzyglop\\appdata\\local\\programs\\python\\python36-32\\lib\\email\\quoprimime.py',
   'PYMODULE'),
  ('email.contentmanager',
   'c:\\users\\mrzyglop\\appdata\\local\\programs\\python\\python36-32\\lib\\email\\contentmanager.py',
   'PYMODULE'),
  ('email.policy',
   'c:\\users\\mrzyglop\\appdata\\local\\programs\\python\\python36-32\\lib\\email\\policy.py',
   'PYMODULE'),
  ('email.message',
   'c:\\users\\mrzyglop\\appdata\\local\\programs\\python\\python36-32\\lib\\email\\message.py',
   'PYMODULE'),
  ('bz2',
   'c:\\users\\mrzyglop\\appdata\\local\\programs\\python\\python36-32\\lib\\bz2.py',
   'PYMODULE'),
  ('lzma',
   'c:\\users\\mrzyglop\\appdata\\local\\programs\\python\\python36-32\\lib\\lzma.py',
   'PYMODULE'),
  ('_compression',
   'c:\\users\\mrzyglop\\appdata\\local\\programs\\python\\python36-32\\lib\\_compression.py',
   'PYMODULE'),
  ('gzip',
   'c:\\users\\mrzyglop\\appdata\\local\\programs\\python\\python36-32\\lib\\gzip.py',
   'PYMODULE'),
  ('tarfile',
   'c:\\users\\mrzyglop\\appdata\\local\\programs\\python\\python36-32\\lib\\tarfile.py',
   'PYMODULE'),
  ('py_compile',
   'c:\\users\\mrzyglop\\appdata\\local\\programs\\python\\python36-32\\lib\\py_compile.py',
   'PYMODULE'),
  ('zipfile',
   'c:\\users\\mrzyglop\\appdata\\local\\programs\\python\\python36-32\\lib\\zipfile.py',
   'PYMODULE'),
  ('shutil',
   'c:\\users\\mrzyglop\\appdata\\local\\programs\\python\\python36-32\\lib\\shutil.py',
   'PYMODULE'),
  ('socket',
   'c:\\users\\mrzyglop\\appdata\\local\\programs\\python\\python36-32\\lib\\socket.py',
   'PYMODULE'),
  ('webbrowser',
   'c:\\users\\mrzyglop\\appdata\\local\\programs\\python\\python36-32\\lib\\webbrowser.py',
   'PYMODULE'),
  ('pydoc',
   'c:\\users\\mrzyglop\\appdata\\local\\programs\\python\\python36-32\\lib\\pydoc.py',
   'PYMODULE'),
  ('getopt',
   'c:\\users\\mrzyglop\\appdata\\local\\programs\\python\\python36-32\\lib\\getopt.py',
   'PYMODULE'),
  ('pdb',
   'c:\\users\\mrzyglop\\appdata\\local\\programs\\python\\python36-32\\lib\\pdb.py',
   'PYMODULE'),
  ('unittest.util',
   'c:\\users\\mrzyglop\\appdata\\local\\programs\\python\\python36-32\\lib\\unittest\\util.py',
   'PYMODULE'),
  ('unittest.result',
   'c:\\users\\mrzyglop\\appdata\\local\\programs\\python\\python36-32\\lib\\unittest\\result.py',
   'PYMODULE'),
  ('string',
   'c:\\users\\mrzyglop\\appdata\\local\\programs\\python\\python36-32\\lib\\string.py',
   'PYMODULE'),
  ('logging',
   'c:\\users\\mrzyglop\\appdata\\local\\programs\\python\\python36-32\\lib\\logging\\__init__.py',
   'PYMODULE'),
  ('unittest.case',
   'c:\\users\\mrzyglop\\appdata\\local\\programs\\python\\python36-32\\lib\\unittest\\case.py',
   'PYMODULE'),
  ('unittest.suite',
   'c:\\users\\mrzyglop\\appdata\\local\\programs\\python\\python36-32\\lib\\unittest\\suite.py',
   'PYMODULE'),
  ('unittest.loader',
   'c:\\users\\mrzyglop\\appdata\\local\\programs\\python\\python36-32\\lib\\unittest\\loader.py',
   'PYMODULE'),
  ('unittest.runner',
   'c:\\users\\mrzyglop\\appdata\\local\\programs\\python\\python36-32\\lib\\unittest\\runner.py',
   'PYMODULE'),
  ('unittest.main',
   'c:\\users\\mrzyglop\\appdata\\local\\programs\\python\\python36-32\\lib\\unittest\\main.py',
   'PYMODULE'),
  ('unittest.signals',
   'c:\\users\\mrzyglop\\appdata\\local\\programs\\python\\python36-32\\lib\\unittest\\signals.py',
   'PYMODULE'),
  ('unittest',
   'c:\\users\\mrzyglop\\appdata\\local\\programs\\python\\python36-32\\lib\\unittest\\__init__.py',
   'PYMODULE'),
  ('doctest',
   'c:\\users\\mrzyglop\\appdata\\local\\programs\\python\\python36-32\\lib\\doctest.py',
   'PYMODULE'),
  ('stat',
   'c:\\users\\mrzyglop\\appdata\\local\\programs\\python\\python36-32\\lib\\stat.py',
   'PYMODULE'),
  ('genericpath',
   'c:\\users\\mrzyglop\\appdata\\local\\programs\\python\\python36-32\\lib\\genericpath.py',
   'PYMODULE'),
  ('posixpath',
   'c:\\users\\mrzyglop\\appdata\\local\\programs\\python\\python36-32\\lib\\posixpath.py',
   'PYMODULE'),
  ('enum',
   'c:\\users\\mrzyglop\\appdata\\local\\programs\\python\\python36-32\\lib\\enum.py',
   'PYMODULE'),
  ('signal',
   'c:\\users\\mrzyglop\\appdata\\local\\programs\\python\\python36-32\\lib\\signal.py',
   'PYMODULE'),
  ('contextlib',
   'c:\\users\\mrzyglop\\appdata\\local\\programs\\python\\python36-32\\lib\\contextlib.py',
   'PYMODULE'),
  ('_threading_local',
   'c:\\users\\mrzyglop\\appdata\\local\\programs\\python\\python36-32\\lib\\_threading_local.py',
   'PYMODULE'),
  ('threading',
   'c:\\users\\mrzyglop\\appdata\\local\\programs\\python\\python36-32\\lib\\threading.py',
   'PYMODULE'),
  ('selectors',
   'c:\\users\\mrzyglop\\appdata\\local\\programs\\python\\python36-32\\lib\\selectors.py',
   'PYMODULE'),
  ('_dummy_thread',
   'c:\\users\\mrzyglop\\appdata\\local\\programs\\python\\python36-32\\lib\\_dummy_thread.py',
   'PYMODULE'),
  ('dummy_threading',
   'c:\\users\\mrzyglop\\appdata\\local\\programs\\python\\python36-32\\lib\\dummy_threading.py',
   'PYMODULE'),
  ('subprocess',
   'c:\\users\\mrzyglop\\appdata\\local\\programs\\python\\python36-32\\lib\\subprocess.py',
   'PYMODULE'),
  ('os',
   'c:\\users\\mrzyglop\\appdata\\local\\programs\\python\\python36-32\\lib\\os.py',
   'PYMODULE'),
  ('textwrap',
   'c:\\users\\mrzyglop\\appdata\\local\\programs\\python\\python36-32\\lib\\textwrap.py',
   'PYMODULE'),
  ('gettext',
   'c:\\users\\mrzyglop\\appdata\\local\\programs\\python\\python36-32\\lib\\gettext.py',
   'PYMODULE'),
  ('argparse',
   'c:\\users\\mrzyglop\\appdata\\local\\programs\\python\\python36-32\\lib\\argparse.py',
   'PYMODULE'),
  ('pprint',
   'c:\\users\\mrzyglop\\appdata\\local\\programs\\python\\python36-32\\lib\\pprint.py',
   'PYMODULE'),
  ('pickle',
   'c:\\users\\mrzyglop\\appdata\\local\\programs\\python\\python36-32\\lib\\pickle.py',
   'PYMODULE'),
  ('tracemalloc',
   'c:\\users\\mrzyglop\\appdata\\local\\programs\\python\\python36-32\\lib\\tracemalloc.py',
   'PYMODULE'),
  ('warnings',
   'c:\\users\\mrzyglop\\appdata\\local\\programs\\python\\python36-32\\lib\\warnings.py',
   'PYMODULE'),
  ('copy',
   'c:\\users\\mrzyglop\\appdata\\local\\programs\\python\\python36-32\\lib\\copy.py',
   'PYMODULE'),
  ('scrapy.utils.log',
   'c:\\users\\mrzyglop\\appdata\\local\\programs\\python\\python36-32\\lib\\site-packages\\scrapy\\utils\\log.py',
   'PYMODULE'),
  ('scrapy.utils',
   'c:\\users\\mrzyglop\\appdata\\local\\programs\\python\\python36-32\\lib\\site-packages\\scrapy\\utils\\__init__.py',
   'PYMODULE'),
  ('scrapy.utils.signal',
   'c:\\users\\mrzyglop\\appdata\\local\\programs\\python\\python36-32\\lib\\site-packages\\scrapy\\utils\\signal.py',
   'PYMODULE'),
  ('pydispatch.robustapply',
   'c:\\users\\mrzyglop\\appdata\\local\\programs\\python\\python36-32\\lib\\site-packages\\pydispatch\\robustapply.py',
   'PYMODULE'),
  ('pydispatch',
   'c:\\users\\mrzyglop\\appdata\\local\\programs\\python\\python36-32\\lib\\site-packages\\pydispatch\\__init__.py',
   'PYMODULE'),
  ('pydispatch.errors',
   'c:\\users\\mrzyglop\\appdata\\local\\programs\\python\\python36-32\\lib\\site-packages\\pydispatch\\errors.py',
   'PYMODULE'),
  ('pydispatch.saferef',
   'c:\\users\\mrzyglop\\appdata\\local\\programs\\python\\python36-32\\lib\\site-packages\\pydispatch\\saferef.py',
   'PYMODULE'),
  ('pydispatch.dispatcher',
   'c:\\users\\mrzyglop\\appdata\\local\\programs\\python\\python36-32\\lib\\site-packages\\pydispatch\\dispatcher.py',
   'PYMODULE'),
  ('scrapy.exceptions',
   'c:\\users\\mrzyglop\\appdata\\local\\programs\\python\\python36-32\\lib\\site-packages\\scrapy\\exceptions.py',
   'PYMODULE'),
  ('scrapy.settings',
   'c:\\users\\mrzyglop\\appdata\\local\\programs\\python\\python36-32\\lib\\site-packages\\scrapy\\settings\\__init__.py',
   'PYMODULE'),
  ('scrapy.settings.default_settings',
   'c:\\users\\mrzyglop\\appdata\\local\\programs\\python\\python36-32\\lib\\site-packages\\scrapy\\settings\\default_settings.py',
   'PYMODULE'),
  ('scrapy.utils.deprecate',
   'c:\\users\\mrzyglop\\appdata\\local\\programs\\python\\python36-32\\lib\\site-packages\\scrapy\\utils\\deprecate.py',
   'PYMODULE'),
  ('logging.config',
   'c:\\users\\mrzyglop\\appdata\\local\\programs\\python\\python36-32\\lib\\logging\\config.py',
   'PYMODULE'),
  ('logging.handlers',
   'c:\\users\\mrzyglop\\appdata\\local\\programs\\python\\python36-32\\lib\\logging\\handlers.py',
   'PYMODULE'),
  ('win32evtlogutil',
   'c:\\users\\mrzyglop\\appdata\\local\\programs\\python\\python36-32\\lib\\site-packages\\win32\\lib\\win32evtlogutil.py',
   'PYMODULE'),
  ('winerror',
   'c:\\users\\mrzyglop\\appdata\\local\\programs\\python\\python36-32\\lib\\site-packages\\win32\\lib\\winerror.py',
   'PYMODULE'),
  ('smtplib',
   'c:\\users\\mrzyglop\\appdata\\local\\programs\\python\\python36-32\\lib\\smtplib.py',
   'PYMODULE'),
  ('scrapy.crawler',
   'c:\\users\\mrzyglop\\appdata\\local\\programs\\python\\python36-32\\lib\\site-packages\\scrapy\\crawler.py',
   'PYMODULE'),
  ('scrapy.signals',
   'c:\\users\\mrzyglop\\appdata\\local\\programs\\python\\python36-32\\lib\\site-packages\\scrapy\\signals.py',
   'PYMODULE'),
  ('scrapy.utils.misc',
   'c:\\users\\mrzyglop\\appdata\\local\\programs\\python\\python36-32\\lib\\site-packages\\scrapy\\utils\\misc.py',
   'PYMODULE'),
  ('scrapy.item',
   'c:\\users\\mrzyglop\\appdata\\local\\programs\\python\\python36-32\\lib\\site-packages\\scrapy\\item.py',
   'PYMODULE'),
  ('scrapy.utils.trackref',
   'c:\\users\\mrzyglop\\appdata\\local\\programs\\python\\python36-32\\lib\\site-packages\\scrapy\\utils\\trackref.py',
   'PYMODULE'),
  ('scrapy.utils.python',
   'c:\\users\\mrzyglop\\appdata\\local\\programs\\python\\python36-32\\lib\\site-packages\\scrapy\\utils\\python.py',
   'PYMODULE'),
  ('scrapy.utils.decorators',
   'c:\\users\\mrzyglop\\appdata\\local\\programs\\python\\python36-32\\lib\\site-packages\\scrapy\\utils\\decorators.py',
   'PYMODULE'),
  ('w3lib.html',
   'c:\\users\\mrzyglop\\appdata\\local\\programs\\python\\python36-32\\lib\\site-packages\\w3lib\\html.py',
   'PYMODULE'),
  ('w3lib',
   'c:\\users\\mrzyglop\\appdata\\local\\programs\\python\\python36-32\\lib\\site-packages\\w3lib\\__init__.py',
   'PYMODULE'),
  ('w3lib.url',
   'c:\\users\\mrzyglop\\appdata\\local\\programs\\python\\python36-32\\lib\\site-packages\\w3lib\\url.py',
   'PYMODULE'),
  ('w3lib.util',
   'c:\\users\\mrzyglop\\appdata\\local\\programs\\python\\python36-32\\lib\\site-packages\\w3lib\\util.py',
   'PYMODULE'),
  ('scrapy.utils.ossignal',
   'c:\\users\\mrzyglop\\appdata\\local\\programs\\python\\python36-32\\lib\\site-packages\\scrapy\\utils\\ossignal.py',
   'PYMODULE'),
  ('scrapy.signalmanager',
   'c:\\users\\mrzyglop\\appdata\\local\\programs\\python\\python36-32\\lib\\site-packages\\scrapy\\signalmanager.py',
   'PYMODULE'),
  ('scrapy.extension',
   'c:\\users\\mrzyglop\\appdata\\local\\programs\\python\\python36-32\\lib\\site-packages\\scrapy\\extension.py',
   'PYMODULE'),
  ('scrapy.utils.conf',
   'c:\\users\\mrzyglop\\appdata\\local\\programs\\python\\python36-32\\lib\\site-packages\\scrapy\\utils\\conf.py',
   'PYMODULE'),
  ('scrapy.middleware',
   'c:\\users\\mrzyglop\\appdata\\local\\programs\\python\\python36-32\\lib\\site-packages\\scrapy\\middleware.py',
   'PYMODULE'),
  ('scrapy.utils.defer',
   'c:\\users\\mrzyglop\\appdata\\local\\programs\\python\\python36-32\\lib\\site-packages\\scrapy\\utils\\defer.py',
   'PYMODULE'),
  ('scrapy.interfaces',
   'c:\\users\\mrzyglop\\appdata\\local\\programs\\python\\python36-32\\lib\\site-packages\\scrapy\\interfaces.py',
   'PYMODULE'),
  ('scrapy.resolver',
   'c:\\users\\mrzyglop\\appdata\\local\\programs\\python\\python36-32\\lib\\site-packages\\scrapy\\resolver.py',
   'PYMODULE'),
  ('scrapy.utils.datatypes',
   'c:\\users\\mrzyglop\\appdata\\local\\programs\\python\\python36-32\\lib\\site-packages\\scrapy\\utils\\datatypes.py',
   'PYMODULE'),
  ('scrapy.core.engine',
   'c:\\users\\mrzyglop\\appdata\\local\\programs\\python\\python36-32\\lib\\site-packages\\scrapy\\core\\engine.py',
   'PYMODULE'),
  ('scrapy.core',
   'c:\\users\\mrzyglop\\appdata\\local\\programs\\python\\python36-32\\lib\\site-packages\\scrapy\\core\\__init__.py',
   'PYMODULE'),
  ('scrapy.utils.reactor',
   'c:\\users\\mrzyglop\\appdata\\local\\programs\\python\\python36-32\\lib\\site-packages\\scrapy\\utils\\reactor.py',
   'PYMODULE'),
  ('scrapy.http',
   'c:\\users\\mrzyglop\\appdata\\local\\programs\\python\\python36-32\\lib\\site-packages\\scrapy\\http\\__init__.py',
   'PYMODULE'),
  ('scrapy.http.response.text',
   'c:\\users\\mrzyglop\\appdata\\local\\programs\\python\\python36-32\\lib\\site-packages\\scrapy\\http\\response\\text.py',
   'PYMODULE'),
  ('scrapy.selector',
   'c:\\users\\mrzyglop\\appdata\\local\\programs\\python\\python36-32\\lib\\site-packages\\scrapy\\selector\\__init__.py',
   'PYMODULE'),
  ('scrapy.selector.lxmlsel',
   'c:\\users\\mrzyglop\\appdata\\local\\programs\\python\\python36-32\\lib\\site-packages\\scrapy\\selector\\lxmlsel.py',
   'PYMODULE'),
  ('scrapy.selector.unified',
   'c:\\users\\mrzyglop\\appdata\\local\\programs\\python\\python36-32\\lib\\site-packages\\scrapy\\selector\\unified.py',
   'PYMODULE'),
  ('scrapy.utils.response',
   'c:\\users\\mrzyglop\\appdata\\local\\programs\\python\\python36-32\\lib\\site-packages\\scrapy\\utils\\response.py',
   'PYMODULE'),
  ('scrapy.utils.iterators',
   'c:\\users\\mrzyglop\\appdata\\local\\programs\\python\\python36-32\\lib\\site-packages\\scrapy\\utils\\iterators.py',
   'PYMODULE'),
  ('lxml',
   'c:\\users\\mrzyglop\\appdata\\local\\programs\\python\\python36-32\\lib\\site-packages\\lxml\\__init__.py',
   'PYMODULE'),
  ('csv',
   'c:\\users\\mrzyglop\\appdata\\local\\programs\\python\\python36-32\\lib\\csv.py',
   'PYMODULE'),
  ('twisted.web.http',
   'c:\\users\\mrzyglop\\appdata\\local\\programs\\python\\python36-32\\lib\\site-packages\\twisted\\web\\http.py',
   'PYMODULE'),
  ('twisted.web._responses',
   'c:\\users\\mrzyglop\\appdata\\local\\programs\\python\\python36-32\\lib\\site-packages\\twisted\\web\\_responses.py',
   'PYMODULE'),
  ('twisted.web._http2',
   'c:\\users\\mrzyglop\\appdata\\local\\programs\\python\\python36-32\\lib\\site-packages\\twisted\\web\\_http2.py',
   'PYMODULE'),
  ('twisted.web.http_headers',
   'c:\\users\\mrzyglop\\appdata\\local\\programs\\python\\python36-32\\lib\\site-packages\\twisted\\web\\http_headers.py',
   'PYMODULE'),
  ('twisted.web.iweb',
   'c:\\users\\mrzyglop\\appdata\\local\\programs\\python\\python36-32\\lib\\site-packages\\twisted\\web\\iweb.py',
   'PYMODULE'),
  ('twisted.cred.credentials',
   'c:\\users\\mrzyglop\\appdata\\local\\programs\\python\\python36-32\\lib\\site-packages\\twisted\\cred\\credentials.py',
   'PYMODULE'),
  ('twisted.cred.error',
   'c:\\users\\mrzyglop\\appdata\\local\\programs\\python\\python36-32\\lib\\site-packages\\twisted\\cred\\error.py',
   'PYMODULE'),
  ('twisted.cred',
   'c:\\users\\mrzyglop\\appdata\\local\\programs\\python\\python36-32\\lib\\site-packages\\twisted\\cred\\__init__.py',
   'PYMODULE'),
  ('twisted.cred._digest',
   'c:\\users\\mrzyglop\\appdata\\local\\programs\\python\\python36-32\\lib\\site-packages\\twisted\\cred\\_digest.py',
   'PYMODULE'),
  ('twisted.python.randbytes',
   'c:\\users\\mrzyglop\\appdata\\local\\programs\\python\\python36-32\\lib\\site-packages\\twisted\\python\\randbytes.py',
   'PYMODULE'),
  ('twisted.web',
   'c:\\users\\mrzyglop\\appdata\\local\\programs\\python\\python36-32\\lib\\site-packages\\twisted\\web\\__init__.py',
   'PYMODULE'),
  ('w3lib.encoding',
   'c:\\users\\mrzyglop\\appdata\\local\\programs\\python\\python36-32\\lib\\site-packages\\w3lib\\encoding.py',
   'PYMODULE'),
  ('parsel',
   'c:\\users\\mrzyglop\\appdata\\local\\programs\\python\\python36-32\\lib\\site-packages\\parsel\\__init__.py',
   'PYMODULE'),
  ('parsel.csstranslator',
   'c:\\users\\mrzyglop\\appdata\\local\\programs\\python\\python36-32\\lib\\site-packages\\parsel\\csstranslator.py',
   'PYMODULE'),
  ('cssselect.parser',
   'c:\\users\\mrzyglop\\appdata\\local\\programs\\python\\python36-32\\lib\\site-packages\\cssselect\\parser.py',
   'PYMODULE'),
  ('cssselect.xpath',
   'c:\\users\\mrzyglop\\appdata\\local\\programs\\python\\python36-32\\lib\\site-packages\\cssselect\\xpath.py',
   'PYMODULE'),
  ('cssselect',
   'c:\\users\\mrzyglop\\appdata\\local\\programs\\python\\python36-32\\lib\\site-packages\\cssselect\\__init__.py',
   'PYMODULE'),
  ('parsel.selector',
   'c:\\users\\mrzyglop\\appdata\\local\\programs\\python\\python36-32\\lib\\site-packages\\parsel\\selector.py',
   'PYMODULE'),
  ('parsel.utils',
   'c:\\users\\mrzyglop\\appdata\\local\\programs\\python\\python36-32\\lib\\site-packages\\parsel\\utils.py',
   'PYMODULE'),
  ('lxml.html',
   'c:\\users\\mrzyglop\\appdata\\local\\programs\\python\\python36-32\\lib\\site-packages\\lxml\\html\\__init__.py',
   'PYMODULE'),
  ('lxml.cssselect',
   'c:\\users\\mrzyglop\\appdata\\local\\programs\\python\\python36-32\\lib\\site-packages\\lxml\\cssselect.py',
   'PYMODULE'),
  ('lxml.html._setmixin',
   'c:\\users\\mrzyglop\\appdata\\local\\programs\\python\\python36-32\\lib\\site-packages\\lxml\\html\\_setmixin.py',
   'PYMODULE'),
  ('lxml.html.defs',
   'c:\\users\\mrzyglop\\appdata\\local\\programs\\python\\python36-32\\lib\\site-packages\\lxml\\html\\defs.py',
   'PYMODULE'),
  ('scrapy.http.response.xml',
   'c:\\users\\mrzyglop\\appdata\\local\\programs\\python\\python36-32\\lib\\site-packages\\scrapy\\http\\response\\xml.py',
   'PYMODULE'),
  ('scrapy.http.response.html',
   'c:\\users\\mrzyglop\\appdata\\local\\programs\\python\\python36-32\\lib\\site-packages\\scrapy\\http\\response\\html.py',
   'PYMODULE'),
  ('scrapy.http.response',
   'c:\\users\\mrzyglop\\appdata\\local\\programs\\python\\python36-32\\lib\\site-packages\\scrapy\\http\\response\\__init__.py',
   'PYMODULE'),
  ('scrapy.http.common',
   'c:\\users\\mrzyglop\\appdata\\local\\programs\\python\\python36-32\\lib\\site-packages\\scrapy\\http\\common.py',
   'PYMODULE'),
  ('scrapy.link',
   'c:\\users\\mrzyglop\\appdata\\local\\programs\\python\\python36-32\\lib\\site-packages\\scrapy\\link.py',
   'PYMODULE'),
  ('scrapy.http.request.rpc',
   'c:\\users\\mrzyglop\\appdata\\local\\programs\\python\\python36-32\\lib\\site-packages\\scrapy\\http\\request\\rpc.py',
   'PYMODULE'),
  ('scrapy.http.request.form',
   'c:\\users\\mrzyglop\\appdata\\local\\programs\\python\\python36-32\\lib\\site-packages\\scrapy\\http\\request\\form.py',
   'PYMODULE'),
  ('scrapy.http.request',
   'c:\\users\\mrzyglop\\appdata\\local\\programs\\python\\python36-32\\lib\\site-packages\\scrapy\\http\\request\\__init__.py',
   'PYMODULE'),
  ('scrapy.utils.url',
   'c:\\users\\mrzyglop\\appdata\\local\\programs\\python\\python36-32\\lib\\site-packages\\scrapy\\utils\\url.py',
   'PYMODULE'),
  ('scrapy.http.headers',
   'c:\\users\\mrzyglop\\appdata\\local\\programs\\python\\python36-32\\lib\\site-packages\\scrapy\\http\\headers.py',
   'PYMODULE'),
  ('w3lib.http',
   'c:\\users\\mrzyglop\\appdata\\local\\programs\\python\\python36-32\\lib\\site-packages\\w3lib\\http.py',
   'PYMODULE'),
  ('scrapy.core.scraper',
   'c:\\users\\mrzyglop\\appdata\\local\\programs\\python\\python36-32\\lib\\site-packages\\scrapy\\core\\scraper.py',
   'PYMODULE'),
  ('scrapy.utils.request',
   'c:\\users\\mrzyglop\\appdata\\local\\programs\\python\\python36-32\\lib\\site-packages\\scrapy\\utils\\request.py',
   'PYMODULE'),
  ('scrapy.utils.httpobj',
   'c:\\users\\mrzyglop\\appdata\\local\\programs\\python\\python36-32\\lib\\site-packages\\scrapy\\utils\\httpobj.py',
   'PYMODULE'),
  ('scrapy.core.spidermw',
   'c:\\users\\mrzyglop\\appdata\\local\\programs\\python\\python36-32\\lib\\site-packages\\scrapy\\core\\spidermw.py',
   'PYMODULE'),
  ('scrapy.utils.spider',
   'c:\\users\\mrzyglop\\appdata\\local\\programs\\python\\python36-32\\lib\\site-packages\\scrapy\\utils\\spider.py',
   'PYMODULE'),
  ('scrapy.spiders',
   'c:\\users\\mrzyglop\\appdata\\local\\programs\\python\\python36-32\\lib\\site-packages\\scrapy\\spiders\\__init__.py',
   'PYMODULE'),
  ('scrapy.spiders.sitemap',
   'c:\\users\\mrzyglop\\appdata\\local\\programs\\python\\python36-32\\lib\\site-packages\\scrapy\\spiders\\sitemap.py',
   'PYMODULE'),
  ('scrapy.utils.gz',
   'c:\\users\\mrzyglop\\appdata\\local\\programs\\python\\python36-32\\lib\\site-packages\\scrapy\\utils\\gz.py',
   'PYMODULE'),
  ('scrapy.utils.sitemap',
   'c:\\users\\mrzyglop\\appdata\\local\\programs\\python\\python36-32\\lib\\site-packages\\scrapy\\utils\\sitemap.py',
   'PYMODULE'),
  ('scrapy.spiders.feed',
   'c:\\users\\mrzyglop\\appdata\\local\\programs\\python\\python36-32\\lib\\site-packages\\scrapy\\spiders\\feed.py',
   'PYMODULE'),
  ('scrapy.spiders.crawl',
   'c:\\users\\mrzyglop\\appdata\\local\\programs\\python\\python36-32\\lib\\site-packages\\scrapy\\spiders\\crawl.py',
   'PYMODULE'),
  ('zope.interface.verify',
   'c:\\users\\mrzyglop\\appdata\\local\\programs\\python\\python36-32\\lib\\site-packages\\zope\\interface\\verify.py',
   'PYMODULE'),
  ('scrapy',
   'c:\\users\\mrzyglop\\appdata\\local\\programs\\python\\python36-32\\lib\\site-packages\\scrapy\\__init__.py',
   'PYMODULE'),
  ('scrapy._monkeypatches',
   'c:\\users\\mrzyglop\\appdata\\local\\programs\\python\\python36-32\\lib\\site-packages\\scrapy\\_monkeypatches.py',
   'PYMODULE'),
  ('twisted.persisted.styles',
   'c:\\users\\mrzyglop\\appdata\\local\\programs\\python\\python36-32\\lib\\site-packages\\twisted\\persisted\\styles.py',
   'PYMODULE'),
  ('twisted.persisted',
   'c:\\users\\mrzyglop\\appdata\\local\\programs\\python\\python36-32\\lib\\site-packages\\twisted\\persisted\\__init__.py',
   'PYMODULE'),
  ('twisted.internet.reactor',
   'c:\\users\\mrzyglop\\appdata\\local\\programs\\python\\python36-32\\lib\\site-packages\\twisted\\internet\\reactor.py',
   'PYMODULE'),
  ('twisted.internet',
   'c:\\users\\mrzyglop\\appdata\\local\\programs\\python\\python36-32\\lib\\site-packages\\twisted\\internet\\__init__.py',
   'PYMODULE')])
