('C:\\Users\\mrzyglop\\egospodarka\\build\\RaportBudownictwo\\out00-PKG.pkg',
 {'BINARY': 1,
  'DATA': 1,
  'EXECUTABLE': 1,
  'EXTENSION': 1,
  'PYMODULE': 1,
  'PYSOURCE': 1,
  'PYZ': 0},
 [('out00-PYZ.pyz',
   'C:\\Users\\mrzyglop\\egospodarka\\build\\RaportBudownictwo\\out00-PYZ.pyz',
   'PYZ'),
  ('struct',
   'c:\\users\\mrzyglop\\appdata\\local\\programs\\python\\python36-32\\lib\\struct.pyo',
   'PYMODULE'),
  ('pyimod01_os_path',
   'c:\\users\\mrzyglop\\appdata\\local\\programs\\python\\python36-32\\lib\\site-packages\\PyInstaller\\loader\\pyimod01_os_path.pyc',
   'PYMODULE'),
  ('pyimod02_archive',
   'c:\\users\\mrzyglop\\appdata\\local\\programs\\python\\python36-32\\lib\\site-packages\\PyInstaller\\loader\\pyimod02_archive.pyc',
   'PYMODULE'),
  ('pyimod03_importers',
   'c:\\users\\mrzyglop\\appdata\\local\\programs\\python\\python36-32\\lib\\site-packages\\PyInstaller\\loader\\pyimod03_importers.pyc',
   'PYMODULE'),
  ('pyiboot01_bootstrap',
   'c:\\users\\mrzyglop\\appdata\\local\\programs\\python\\python36-32\\lib\\site-packages\\PyInstaller\\loader\\pyiboot01_bootstrap.py',
   'PYSOURCE'),
  ('pyi_rth_multiprocessing',
   'c:\\users\\mrzyglop\\appdata\\local\\programs\\python\\python36-32\\lib\\site-packages\\PyInstaller\\loader\\rthooks\\pyi_rth_multiprocessing.py',
   'PYSOURCE'),
  ('pyi_rth_twisted',
   'c:\\users\\mrzyglop\\appdata\\local\\programs\\python\\python36-32\\lib\\site-packages\\PyInstaller\\loader\\rthooks\\pyi_rth_twisted.py',
   'PYSOURCE'),
  ('RaportBudownictwo',
   'C:\\Users\\mrzyglop\\egospodarka\\RaportBudownictwo.py',
   'PYSOURCE'),
  ('RaportBudownictwo.exe.manifest',
   'C:\\Users\\mrzyglop\\egospodarka\\build\\RaportBudownictwo\\RaportBudownictwo.exe.manifest',
   'BINARY')],
 True,
 False,
 False)
